E2_Signale_Auf_Leitungen/data/c/original/ALL0011/F0011CH1.CSV

Record Length,2.500000e+03,,  -0.000000038000, -22.40000,
Sample Interval,2.000000e-10,,  -0.000000037800, -22.80000,
Trigger Point,1.900000000000e+02,,  -0.000000037600, -22.80000,
,,,  -0.000000037400, -22.80000,
,,,  -0.000000037200, -22.80000,
,,,  -0.000000037000, -22.80000,
Source,CH1,,  -0.000000036800, -22.80000,
Vertical Units,V,,  -0.000000036600, -22.80000,
Vertical Scale,1.000000e+01,,  -0.000000036400, -22.80000,
Vertical Offset,-5.600000e+00,,  -0.000000036200, -22.80000,
Horizontal Units,s,,  -0.000000036000, -22.40000,
Horizontal Scale,5.000000e-08,,  -0.000000035800, -22.40000,
Pt Fmt,Y,,  -0.000000035600, -22.40000,
Yzero,0.000000e+00,,  -0.000000035400, -22.40000,
Probe Atten,1.000000e+01,,  -0.000000035200, -22.40000,
Model Number,TDS1001B,,  -0.000000035000, -22.40000,
Serial Number,C059827,,  -0.000000034800, -22.40000,
Firmware Version,FV:v22.01,,  -0.000000034600, -22.40000,
,,,-00.000000034400, -22.40000,
,,,-00.000000034200, -22.40000,
,,,-00.000000034000, -22.00000,
,,,-00.000000033800, -22.40000,
,,,-00.000000033600, -22.40000,
,,,-00.000000033400, -22.40000,
,,,-00.000000033200, -22.40000,
,,,-00.000000033000, -22.40000,
,,,-00.000000032800, -22.40000,
,,,-00.000000032600, -22.40000,
,,,-00.000000032400, -22.40000,
,,,-00.000000032200, -22.40000,
,,,-00.000000032000, -22.40000,
,,,-00.000000031800, -22.40000,
,,,-00.000000031600, -22.40000,
,,,-00.000000031400, -22.40000,
,,,-00.000000031200, -22.40000,
,,,-00.000000031000, -22.40000,
,,,-00.000000030800, -22.40000,
,,,-00.000000030600, -22.40000,
,,,-00.000000030400, -22.40000,
,,,-00.000000030200, -22.40000,
,,,-00.000000030000, -22.40000,
,,,-00.000000029800, -22.40000,
,,,-00.000000029600, -22.40000,
,,,-00.000000029400, -22.40000,
,,,-00.000000029200, -22.40000,
,,,-00.000000029000, -22.40000,
,,,-00.000000028800, -22.40000,
,,,-00.000000028600, -22.40000,
,,,-00.000000028400, -22.40000,
,,,-00.000000028200, -22.40000,
,,,-00.000000028000, -22.00000,
,,,-00.000000027800, -22.00000,
,,,-00.000000027600, -22.00000,
,,,-00.000000027400, -22.00000,
,,,-00.000000027200, -22.00000,
,,,-00.000000027000, -22.00000,
,,,-00.000000026800, -22.00000,
,,,-00.000000026600, -22.00000,
,,,-00.000000026400, -22.00000,
,,,-00.000000026200, -22.00000,
,,,-00.000000026000, -22.00000,
,,,-00.000000025800, -22.40000,
,,,-00.000000025600, -22.40000,
,,,-00.000000025400, -22.40000,
,,,-00.000000025200, -22.40000,
,,,-00.000000025000, -22.40000,
,,,-00.000000024800, -22.40000,
,,,-00.000000024600, -22.80000,
,,,-00.000000024400, -22.80000,
,,,-00.000000024200, -22.40000,
,,,-00.000000024000, -22.40000,
,,,-00.000000023800, -22.40000,
,,,-00.000000023600, -22.40000,
,,,-00.000000023400, -22.40000,
,,,-00.000000023200, -22.40000,
,,,-00.000000023000, -22.00000,
,,,-00.000000022800, -22.40000,
,,,-00.000000022600, -22.40000,
,,,-00.000000022400, -22.40000,
,,,-00.000000022200, -22.40000,
,,,-00.000000022000, -22.40000,
,,,-00.000000021800, -22.40000,
,,,-00.000000021600, -22.80000,
,,,-00.000000021400, -22.80000,
,,,-00.000000021200, -22.40000,
,,,-00.000000021000, -22.40000,
,,,-00.000000020800, -22.40000,
,,,-00.000000020600, -22.40000,
,,,-00.000000020400, -22.40000,
,,,-00.000000020200, -22.40000,
,,,-00.000000020000, -22.00000,
,,,-00.000000019800, -22.00000,
,,,-00.000000019600, -22.00000,
,,,-00.000000019400, -22.00000,
,,,-00.000000019200, -22.00000,
,,,-00.000000019000, -22.00000,
,,,-00.000000018800, -22.40000,
,,,-00.000000018600, -22.40000,
,,,-00.000000018400, -22.40000,
,,,-00.000000018200, -22.40000,
,,,-00.000000018000, -22.40000,
,,,-00.000000017800, -22.40000,
,,,-00.000000017600, -22.40000,
,,,-00.000000017400, -22.40000,
,,,-00.000000017200, -22.40000,
,,,-00.000000017000, -22.40000,
,,,-00.000000016800, -22.40000,
,,,-00.000000016600, -22.80000,
,,,-00.000000016400, -22.80000,
,,,-00.000000016200, -22.40000,
,,,-00.000000016000, -22.40000,
,,,-00.000000015800, -22.40000,
,,,-00.000000015600, -22.40000,
,,,-00.000000015400, -22.00000,
,,,-00.000000015200, -22.00000,
,,,-00.000000015000, -21.60000,
,,,-00.000000014800, -21.60000,
,,,-00.000000014600, -21.60000,
,,,-00.000000014400, -21.60000,
,,,-00.000000014200, -21.60000,
,,,-00.000000014000, -21.60000,
,,,-00.000000013800, -21.60000,
,,,-00.000000013600, -21.60000,
,,,-00.000000013400, -21.60000,
,,,-00.000000013200, -21.60000,
,,,-00.000000013000, -21.60000,
,,,-00.000000012800, -21.60000,
,,,-00.000000012600, -21.60000,
,,,-00.000000012400, -21.60000,
,,,-00.000000012200, -21.60000,
,,,-00.000000012000, -21.60000,
,,,-00.000000011800, -21.60000,
,,,-00.000000011600, -21.60000,
,,,-00.000000011400, -21.60000,
,,,-00.000000011200, -21.60000,
,,,-00.000000011000, -21.60000,
,,,-00.000000010800, -21.60000,
,,,-00.000000010600, -21.60000,
,,,-00.000000010400, -21.60000,
,,,-00.000000010200, -21.60000,
,,,-00.000000010000, -21.60000,
,,,-00.000000009800, -21.60000,
,,,-00.000000009600, -21.60000,
,,,-00.000000009400, -21.60000,
,,,-00.000000009200, -21.60000,
,,,-00.000000009000, -21.20000,
,,,-00.000000008800, -21.20000,
,,,-00.000000008600, -21.20000,
,,,-00.000000008400, -21.20000,
,,,-00.000000008200, -21.20000,
,,,-00.000000008000, -21.20000,
,,,-00.000000007800, -21.20000,
,,,-00.000000007600, -21.20000,
,,,-00.000000007400, -21.20000,
,,,-00.000000007200, -21.20000,
,,,-00.000000007000, -20.80000,
,,,-00.000000006800, -20.80000,
,,,-00.000000006600, -20.80000,
,,,-00.000000006400, -20.80000,
,,,-00.000000006200, -20.80000,
,,,-00.000000006000, -20.80000,
,,,-00.000000005800, -20.80000,
,,,-00.000000005600, -20.80000,
,,,-00.000000005400, -20.40000,
,,,-00.000000005200, -20.40000,
,,,-00.000000005000, -20.00000,
,,,-00.000000004800, -20.00000,
,,,-00.000000004600, -20.00000,
,,,-00.000000004400, -20.00000,
,,,-00.000000004200, -20.00000,
,,,-00.000000004000, -19.60000,
,,,-00.000000003800, -19.60000,
,,,-00.000000003600, -19.60000,
,,,-00.000000003400, -19.60000,
,,,-00.000000003200, -19.60000,
,,,-00.000000003000, -19.20000,
,,,-00.000000002800, -19.20000,
,,,-00.000000002600, -19.20000,
,,,-00.000000002400, -19.20000,
,,,-00.000000002200, -19.20000,
,,,-00.000000002000, -18.80000,
,,,-00.000000001800, -18.80000,
,,,-00.000000001600, -18.40000,
,,,-00.000000001400, -18.40000,
,,,-00.000000001200, -18.00000,
,,,-00.000000001000, -17.60000,
,,,-00.000000000800, -17.60000,
,,,-00.000000000600, -17.20000,
,,,-00.000000000400, -17.20000,
,,,-00.000000000200, -16.80000,
,,,-00.000000000000, -16.40000,
,,,00.000000000200, -16.40000,
,,,00.000000000400, -16.40000,
,,,00.000000000600, -16.00000,
,,,00.000000000800, -16.00000,
,,,00.000000001000, -15.60000,
,,,00.000000001200, -15.60000,
,,,00.000000001400, -15.20000,
,,,00.000000001600, -15.20000,
,,,00.000000001800, -14.80000,
,,,00.000000002000, -14.40000,
,,,00.000000002200, -14.40000,
,,,00.000000002400, -14.00000,
,,,00.000000002600, -14.00000,
,,,00.000000002800, -13.60000,
,,,00.000000003000, -13.20000,
,,,00.000000003200, -13.20000,
,,,00.000000003400, -12.80000,
,,,00.000000003600, -12.80000,
,,,00.000000003800, -12.40000,
,,,00.000000004000, -12.00000,
,,,00.000000004200, -12.00000,
,,,00.000000004400, -12.00000,
,,,00.000000004600, -11.60000,
,,,00.000000004800, -11.60000,
,,,00.000000005000, -11.20000,
,,,00.000000005200, -11.20000,
,,,00.000000005400, -10.80000,
,,,00.000000005600, -10.80000,
,,,00.000000005800, -10.40000,
,,,00.000000006000, -10.00000,
,,,00.000000006200, -10.00000,
,,,00.000000006400, -10.00000,
,,,00.000000006600,  -9.60000,
,,,00.000000006800,  -9.60000,
,,,00.000000007000,  -9.20000,
,,,00.000000007200,  -9.20000,
,,,00.000000007400,  -9.20000,
,,,00.000000007600,  -8.80000,
,,,00.000000007800,  -8.80000,
,,,00.000000008000,  -8.40000,
,,,00.000000008200,  -8.40000,
,,,00.000000008400,  -8.00000,
,,,00.000000008600,  -7.60000,
,,,00.000000008800,  -7.20000,
,,,00.000000009000,  -6.80000,
,,,00.000000009200,  -6.80000,
,,,00.000000009400,  -6.40000,
,,,00.000000009600,  -6.40000,
,,,00.000000009800,  -6.40000,
,,,00.000000010000,  -6.00000,
,,,00.000000010200,  -6.00000,
,,,00.000000010400,  -6.00000,
,,,00.000000010600,  -5.60000,
,,,00.000000010800,  -5.60000,
,,,00.000000011000,  -5.20000,
,,,00.000000011200,  -5.20000,
,,,00.000000011400,  -5.20000,
,,,00.000000011600,  -5.20000,
,,,00.000000011800,  -5.20000,
,,,00.000000012000,  -4.80000,
,,,00.000000012200,  -4.80000,
,,,00.000000012400,  -4.40000,
,,,00.000000012600,  -4.40000,
,,,00.000000012800,  -4.00000,
,,,00.000000013000,  -3.60000,
,,,00.000000013200,  -3.60000,
,,,00.000000013400,  -3.60000,
,,,00.000000013600,  -3.60000,
,,,00.000000013800,  -3.20000,
,,,00.000000014000,  -3.20000,
,,,00.000000014200,  -3.20000,
,,,00.000000014400,  -3.20000,
,,,00.000000014600,  -3.20000,
,,,00.000000014800,  -3.20000,
,,,00.000000015000,  -2.80000,
,,,00.000000015200,  -2.80000,
,,,00.000000015400,  -2.80000,
,,,00.000000015600,  -2.40000,
,,,00.000000015800,  -2.40000,
,,,00.000000016000,  -2.00000,
,,,00.000000016200,  -2.00000,
,,,00.000000016400,  -2.00000,
,,,00.000000016600,  -2.00000,
,,,00.000000016800,  -2.00000,
,,,00.000000017000,  -2.00000,
,,,00.000000017200,  -2.00000,
,,,00.000000017400,  -2.00000,
,,,00.000000017600,  -2.00000,
,,,00.000000017800,  -2.00000,
,,,00.000000018000,  -1.60000,
,,,00.000000018200,  -1.60000,
,,,00.000000018400,  -1.60000,
,,,00.000000018600,  -1.60000,
,,,00.000000018800,  -1.60000,
,,,00.000000019000,  -1.20000,
,,,00.000000019200,  -1.20000,
,,,00.000000019400,  -1.20000,
,,,00.000000019600,  -1.20000,
,,,00.000000019800,  -1.20000,
,,,00.000000020000,  -1.20000,
,,,00.000000020200,  -1.20000,
,,,00.000000020400,  -1.20000,
,,,00.000000020600,  -1.20000,
,,,00.000000020800,  -1.20000,
,,,00.000000021000,  -1.20000,
,,,00.000000021200,  -1.60000,
,,,00.000000021400,  -1.60000,
,,,00.000000021600,  -1.60000,
,,,00.000000021800,  -1.60000,
,,,00.000000022000,  -1.60000,
,,,00.000000022200,  -1.60000,
,,,00.000000022400,  -1.60000,
,,,00.000000022600,  -1.60000,
,,,00.000000022800,  -1.60000,
,,,00.000000023000,  -1.20000,
,,,00.000000023200,  -1.60000,
,,,00.000000023400,  -1.60000,
,,,00.000000023600,  -1.60000,
,,,00.000000023800,  -1.60000,
,,,00.000000024000,  -1.60000,
,,,00.000000024200,  -1.60000,
,,,00.000000024400,  -2.00000,
,,,00.000000024600,  -2.00000,
,,,00.000000024800,  -1.60000,
,,,00.000000025000,  -1.60000,
,,,00.000000025200,  -1.60000,
,,,00.000000025400,  -1.60000,
,,,00.000000025600,  -1.60000,
,,,00.000000025800,  -1.60000,
,,,00.000000026000,  -1.20000,
,,,00.000000026200,  -1.20000,
,,,00.000000026400,  -1.20000,
,,,00.000000026600,  -1.20000,
,,,00.000000026800,  -1.20000,
,,,00.000000027000,  -1.20000,
,,,00.000000027200,  -1.20000,
,,,00.000000027400,  -1.20000,
,,,00.000000027600,  -1.20000,
,,,00.000000027800,  -1.20000,
,,,00.000000028000,  -1.20000,
,,,00.000000028200,  -1.20000,
,,,00.000000028400,  -1.20000,
,,,00.000000028600,  -1.20000,
,,,00.000000028800,  -1.20000,
,,,00.000000029000,  -1.20000,
,,,00.000000029200,  -1.60000,
,,,00.000000029400,  -1.60000,
,,,00.000000029600,  -1.60000,
,,,00.000000029800,  -1.60000,
,,,00.000000030000,  -1.60000,
,,,00.000000030200,  -1.60000,
,,,00.000000030400,  -1.60000,
,,,00.000000030600,  -1.60000,
,,,00.000000030800,  -1.60000,
,,,00.000000031000,  -1.60000,
,,,00.000000031200,  -1.60000,
,,,00.000000031400,  -1.60000,
,,,00.000000031600,  -1.60000,
,,,00.000000031800,  -1.60000,
,,,00.000000032000,  -1.60000,
,,,00.000000032200,  -1.60000,
,,,00.000000032400,  -1.60000,
,,,00.000000032600,  -1.60000,
,,,00.000000032800,  -1.60000,
,,,00.000000033000,  -1.60000,
,,,00.000000033200,  -1.60000,
,,,00.000000033400,  -1.60000,
,,,00.000000033600,  -1.60000,
,,,00.000000033800,  -1.60000,
,,,00.000000034000,  -1.60000,
,,,00.000000034200,  -1.60000,
,,,00.000000034400,  -2.00000,
,,,00.000000034600,  -2.00000,
,,,00.000000034800,  -1.60000,
,,,00.000000035000,  -1.60000,
,,,00.000000035200,  -1.60000,
,,,00.000000035400,  -1.60000,
,,,00.000000035600,  -1.20000,
,,,00.000000035800,  -1.20000,
,,,00.000000036000,  -0.80000,
,,,00.000000036200,  -0.80000,
,,,00.000000036400,  -0.80000,
,,,00.000000036600,  -0.80000,
,,,00.000000036800,  -0.80000,
,,,00.000000037000,  -0.80000,
,,,00.000000037200,  -1.20000,
,,,00.000000037400,  -1.20000,
,,,00.000000037600,  -1.20000,
,,,00.000000037800,  -1.20000,
,,,00.000000038000,  -1.20000,
,,,00.000000038200,  -1.60000,
,,,00.000000038400,  -1.60000,
,,,00.000000038600,  -1.60000,
,,,00.000000038800,  -1.60000,
,,,00.000000039000,  -1.20000,
,,,00.000000039200,  -1.20000,
,,,00.000000039400,  -1.20000,
,,,00.000000039600,  -0.80000,
,,,00.000000039800,  -0.80000,
,,,00.000000040000,  -0.40000,
,,,00.000000040200,  -0.40000,
,,,00.000000040400,  -0.80000,
,,,00.000000040600,  -0.80000,
,,,00.000000040800,  -0.80000,
,,,00.000000041000,  -0.80000,
,,,00.000000041200,  -1.20000,
,,,00.000000041400,  -1.20000,
,,,00.000000041600,  -1.20000,
,,,00.000000041800,  -1.20000,
,,,00.000000042000,  -1.20000,
,,,00.000000042200,  -1.20000,
,,,00.000000042400,  -1.20000,
,,,00.000000042600,  -1.20000,
,,,00.000000042800,  -1.20000,
,,,00.000000043000,  -0.80000,
,,,00.000000043200,  -0.80000,
,,,00.000000043400,  -0.80000,
,,,00.000000043600,  -0.80000,
,,,00.000000043800,  -0.80000,
,,,00.000000044000,  -0.40000,
,,,00.000000044200,  -0.40000,
,,,00.000000044400,  -0.40000,
,,,00.000000044600,  -0.40000,
,,,00.000000044800,  -0.40000,
,,,00.000000045000,  -0.40000,
,,,00.000000045200,  -0.40000,
,,,00.000000045400,  -0.40000,
,,,00.000000045600,  -0.40000,
,,,00.000000045800,  -0.40000,
,,,00.000000046000,  -0.40000,
,,,00.000000046200,  -0.80000,
,,,00.000000046400,  -0.80000,
,,,00.000000046600,  -0.80000,
,,,00.000000046800,  -0.80000,
,,,00.000000047000,  -0.80000,
,,,00.000000047200,  -0.80000,
,,,00.000000047400,  -0.80000,
,,,00.000000047600,  -0.40000,
,,,00.000000047800,  -0.40000,
,,,00.000000048000,   0.00000,
,,,00.000000048200,   0.00000,
,,,00.000000048400,   0.00000,
,,,00.000000048600,   0.00000,
,,,00.000000048800,   0.00000,
,,,00.000000049000,   0.00000,
,,,00.000000049200,  -0.40000,
,,,00.000000049400,  -0.40000,
,,,00.000000049600,  -0.40000,
,,,00.000000049800,  -0.40000,
,,,00.000000050000,  -0.40000,
,,,00.000000050200,  -0.40000,
,,,00.000000050400,  -0.80000,
,,,00.000000050600,  -0.80000,
,,,00.000000050800,  -0.40000,
,,,00.000000051000,  -0.40000,
,,,00.000000051200,  -0.40000,
,,,00.000000051400,  -0.40000,
,,,00.000000051600,  -0.40000,
,,,00.000000051800,  -0.40000,
,,,00.000000052000,   0.00000,
,,,00.000000052200,   0.00000,
,,,00.000000052400,   0.00000,
,,,00.000000052600,   0.00000,
,,,00.000000052800,   0.00000,
,,,00.000000053000,   0.00000,
,,,00.000000053200,   0.00000,
,,,00.000000053400,   0.00000,
,,,00.000000053600,   0.00000,
,,,00.000000053800,   0.00000,
,,,00.000000054000,   0.40000,
,,,00.000000054200,   0.00000,
,,,00.000000054400,   0.00000,
,,,00.000000054600,   0.00000,
,,,00.000000054800,   0.00000,
,,,00.000000055000,   0.00000,
,,,00.000000055200,   0.00000,
,,,00.000000055400,  -0.40000,
,,,00.000000055600,  -0.40000,
,,,00.000000055800,   0.00000,
,,,00.000000056000,   0.00000,
,,,00.000000056200,   0.00000,
,,,00.000000056400,   0.00000,
,,,00.000000056600,   0.00000,
,,,00.000000056800,   0.00000,
,,,00.000000057000,   0.40000,
,,,00.000000057200,   0.00000,
,,,00.000000057400,   0.00000,
,,,00.000000057600,   0.00000,
,,,00.000000057800,   0.00000,
,,,00.000000058000,   0.00000,
,,,00.000000058200,  -0.40000,
,,,00.000000058400,  -0.40000,
,,,00.000000058600,  -0.40000,
,,,00.000000058800,  -0.40000,
,,,00.000000059000,   0.00000,
,,,00.000000059200,   0.00000,
,,,00.000000059400,   0.00000,
,,,00.000000059600,   0.40000,
,,,00.000000059800,   0.40000,
,,,00.000000060000,   0.80000,
,,,00.000000060200,   0.80000,
,,,00.000000060400,   0.80000,
,,,00.000000060600,   0.80000,
,,,00.000000060800,   0.80000,
,,,00.000000061000,   0.80000,
,,,00.000000061200,   0.80000,
,,,00.000000061400,   0.80000,
,,,00.000000061600,   0.80000,
,,,00.000000061800,   0.80000,
,,,00.000000062000,   0.80000,
,,,00.000000062200,   0.40000,
,,,00.000000062400,   0.40000,
,,,00.000000062600,   0.00000,
,,,00.000000062800,   0.00000,
,,,00.000000063000,   0.00000,
,,,00.000000063200,   0.00000,
,,,00.000000063400,   0.00000,
,,,00.000000063600,   0.00000,
,,,00.000000063800,   0.00000,
,,,00.000000064000,   0.40000,
,,,00.000000064200,   0.40000,
,,,00.000000064400,   0.40000,
,,,00.000000064600,   0.40000,
,,,00.000000064800,   0.40000,
,,,00.000000065000,   0.40000,
,,,00.000000065200,   0.40000,
,,,00.000000065400,   0.40000,
,,,00.000000065600,   0.40000,
,,,00.000000065800,   0.40000,
,,,00.000000066000,   0.40000,
,,,00.000000066200,   0.40000,
,,,00.000000066400,   0.40000,
,,,00.000000066600,   0.40000,
,,,00.000000066800,   0.40000,
,,,00.000000067000,   0.40000,
,,,00.000000067200,   0.40000,
,,,00.000000067400,   0.40000,
,,,00.000000067600,   0.40000,
,,,00.000000067800,   0.40000,
,,,00.000000068000,   0.80000,
,,,00.000000068200,   0.80000,
,,,00.000000068400,   0.80000,
,,,00.000000068600,   0.80000,
,,,00.000000068800,   1.20000,
,,,00.000000069000,   1.20000,
,,,00.000000069200,   0.80000,
,,,00.000000069400,   0.80000,
,,,00.000000069600,   0.80000,
,,,00.000000069800,   0.80000,
,,,00.000000070000,   0.80000,
,,,00.000000070200,   0.80000,
,,,00.000000070400,   0.80000,
,,,00.000000070600,   0.80000,
,,,00.000000070800,   0.80000,
,,,00.000000071000,   1.20000,
,,,00.000000071200,   0.80000,
,,,00.000000071400,   0.80000,
,,,00.000000071600,   0.80000,
,,,00.000000071800,   0.80000,
,,,00.000000072000,   0.80000,
,,,00.000000072200,   0.80000,
,,,00.000000072400,   0.80000,
,,,00.000000072600,   0.80000,
,,,00.000000072800,   0.80000,
,,,00.000000073000,   0.80000,
,,,00.000000073200,   0.80000,
,,,00.000000073400,   0.80000,
,,,00.000000073600,   0.80000,
,,,00.000000073800,   0.80000,
,,,00.000000074000,   0.80000,
,,,00.000000074200,   0.80000,
,,,00.000000074400,   0.80000,
,,,00.000000074600,   0.80000,
,,,00.000000074800,   0.80000,
,,,00.000000075000,   1.20000,
,,,00.000000075200,   0.80000,
,,,00.000000075400,   0.80000,
,,,00.000000075600,   0.80000,
,,,00.000000075800,   0.80000,
,,,00.000000076000,   0.80000,
,,,00.000000076200,   0.80000,
,,,00.000000076400,   0.40000,
,,,00.000000076600,   0.40000,
,,,00.000000076800,   0.80000,
,,,00.000000077000,   0.80000,
,,,00.000000077200,   0.80000,
,,,00.000000077400,   0.80000,
,,,00.000000077600,   0.80000,
,,,00.000000077800,   0.80000,
,,,00.000000078000,   1.20000,
,,,00.000000078200,   1.20000,
,,,00.000000078400,   1.20000,
,,,00.000000078600,   1.20000,
,,,00.000000078800,   1.20000,
,,,00.000000079000,   1.20000,
,,,00.000000079200,   1.20000,
,,,00.000000079400,   1.20000,
,,,00.000000079600,   1.20000,
,,,00.000000079800,   1.20000,
,,,00.000000080000,   1.60000,
,,,00.000000080200,   1.60000,
,,,00.000000080400,   1.60000,
,,,00.000000080600,   1.60000,
,,,00.000000080800,   1.60000,
,,,00.000000081000,   1.60000,
,,,00.000000081200,   1.20000,
,,,00.000000081400,   1.20000,
,,,00.000000081600,   1.20000,
,,,00.000000081800,   1.20000,
,,,00.000000082000,   1.20000,
,,,00.000000082200,   1.20000,
,,,00.000000082400,   1.20000,
,,,00.000000082600,   1.20000,
,,,00.000000082800,   1.20000,
,,,00.000000083000,   1.60000,
,,,00.000000083200,   1.60000,
,,,00.000000083400,   1.60000,
,,,00.000000083600,   1.60000,
,,,00.000000083800,   1.60000,
,,,00.000000084000,   1.60000,
,,,00.000000084200,   1.20000,
,,,00.000000084400,   1.20000,
,,,00.000000084600,   1.20000,
,,,00.000000084800,   1.20000,
,,,00.000000085000,   1.20000,
,,,00.000000085200,   1.20000,
,,,00.000000085400,   1.20000,
,,,00.000000085600,   1.20000,
,,,00.000000085800,   1.20000,
,,,00.000000086000,   1.60000,
,,,00.000000086200,   1.20000,
,,,00.000000086400,   1.20000,
,,,00.000000086600,   1.20000,
,,,00.000000086800,   1.20000,
,,,00.000000087000,   1.20000,
,,,00.000000087200,   1.20000,
,,,00.000000087400,   0.80000,
