V21_Optisches_pumpen/data/ALL0001/F0001CH1.CSV

Record Length,2.500000e+03,,  -0.000000204000,  49.20000,
Sample Interval,4.000000e-10,,  -0.000000203600,  49.20000,
Trigger Point,5.100000000000e+02,,  -0.000000203200,  49.20000,
,,,  -0.000000202800,  49.20000,
,,,  -0.000000202400,  49.20000,
,,,  -0.000000202000,  49.20000,
Source,CH1,,  -0.000000201600,  49.20000,
Vertical Units,V,,  -0.000000201200,  49.20000,
Vertical Scale,1.000000e+01,,  -0.000000200800,  49.20000,
Vertical Offset,-2.480000e+01,,  -0.000000200400,  49.20000,
Horizontal Units,s,,  -0.000000200000,  49.20000,
Horizontal Scale,1.000000e-07,,  -0.000000199600,  49.20000,
Pt Fmt,Y,,  -0.000000199200,  49.20000,
Yzero,0.000000e+00,,  -0.000000198800,  49.20000,
Probe Atten,1.000000e+01,,  -0.000000198400,  49.20000,
Model Number,TDS1012B,,  -0.000000198000,  49.20000,
Serial Number,C063623,,  -0.000000197600,  49.20000,
Firmware Version,FV:v22.01,,  -0.000000197200,  49.20000,
,,,-00.000000196800,  49.20000,
,,,-00.000000196400,  49.20000,
,,,-00.000000196000,  49.20000,
,,,-00.000000195600,  49.20000,
,,,-00.000000195200,  49.20000,
,,,-00.000000194800,  49.20000,
,,,-00.000000194400,  49.20000,
,,,-00.000000194000,  49.20000,
,,,-00.000000193600,  49.20000,
,,,-00.000000193200,  49.20000,
,,,-00.000000192800,  49.20000,
,,,-00.000000192400,  49.20000,
,,,-00.000000192000,  49.20000,
,,,-00.000000191600,  49.20000,
,,,-00.000000191200,  49.20000,
,,,-00.000000190800,  49.20000,
,,,-00.000000190400,  49.20000,
,,,-00.000000190000,  49.20000,
,,,-00.000000189600,  49.20000,
,,,-00.000000189200,  49.20000,
,,,-00.000000188800,  49.20000,
,,,-00.000000188400,  49.20000,
,,,-00.000000188000,  49.20000,
,,,-00.000000187600,  49.20000,
,,,-00.000000187200,  49.20000,
,,,-00.000000186800,  49.20000,
,,,-00.000000186400,  49.20000,
,,,-00.000000186000,  49.20000,
,,,-00.000000185600,  49.20000,
,,,-00.000000185200,  49.20000,
,,,-00.000000184800,  49.20000,
,,,-00.000000184400,  49.20000,
,,,-00.000000184000,  49.20000,
,,,-00.000000183600,  49.20000,
,,,-00.000000183200,  49.20000,
,,,-00.000000182800,  49.20000,
,,,-00.000000182400,  49.20000,
,,,-00.000000182000,  49.20000,
,,,-00.000000181600,  49.20000,
,,,-00.000000181200,  49.20000,
,,,-00.000000180800,  49.20000,
,,,-00.000000180400,  49.20000,
,,,-00.000000180000,  49.20000,
,,,-00.000000179600,  49.20000,
,,,-00.000000179200,  49.20000,
,,,-00.000000178800,  49.20000,
,,,-00.000000178400,  49.20000,
,,,-00.000000178000,  49.20000,
,,,-00.000000177600,  49.20000,
,,,-00.000000177200,  49.20000,
,,,-00.000000176800,  49.20000,
,,,-00.000000176400,  49.20000,
,,,-00.000000176000,  49.20000,
,,,-00.000000175600,  49.20000,
,,,-00.000000175200,  49.20000,
,,,-00.000000174800,  49.20000,
,,,-00.000000174400,  49.20000,
,,,-00.000000174000,  49.20000,
,,,-00.000000173600,  49.20000,
,,,-00.000000173200,  49.20000,
,,,-00.000000172800,  49.20000,
,,,-00.000000172400,  49.20000,
,,,-00.000000172000,  49.20000,
,,,-00.000000171600,  49.20000,
,,,-00.000000171200,  49.20000,
,,,-00.000000170800,  49.20000,
,,,-00.000000170400,  49.20000,
,,,-00.000000170000,  49.20000,
,,,-00.000000169600,  49.20000,
,,,-00.000000169200,  49.20000,
,,,-00.000000168800,  49.20000,
,,,-00.000000168400,  49.20000,
,,,-00.000000168000,  49.20000,
,,,-00.000000167600,  49.20000,
,,,-00.000000167200,  49.20000,
,,,-00.000000166800,  49.20000,
,,,-00.000000166400,  49.20000,
,,,-00.000000166000,  49.20000,
,,,-00.000000165600,  49.20000,
,,,-00.000000165200,  49.20000,
,,,-00.000000164800,  49.20000,
,,,-00.000000164400,  49.20000,
,,,-00.000000164000,  49.20000,
,,,-00.000000163600,  49.20000,
,,,-00.000000163200,  49.20000,
,,,-00.000000162800,  49.20000,
,,,-00.000000162400,  49.20000,
,,,-00.000000162000,  49.20000,
,,,-00.000000161600,  49.20000,
,,,-00.000000161200,  49.20000,
,,,-00.000000160800,  49.20000,
,,,-00.000000160400,  49.20000,
,,,-00.000000160000,  49.20000,
,,,-00.000000159600,  49.20000,
,,,-00.000000159200,  49.20000,
,,,-00.000000158800,  49.20000,
,,,-00.000000158400,  49.20000,
,,,-00.000000158000,  49.20000,
,,,-00.000000157600,  49.20000,
,,,-00.000000157200,  49.20000,
,,,-00.000000156800,  49.20000,
,,,-00.000000156400,  49.20000,
,,,-00.000000156000,  49.20000,
,,,-00.000000155600,  49.20000,
,,,-00.000000155200,  49.20000,
,,,-00.000000154800,  49.20000,
,,,-00.000000154400,  49.20000,
,,,-00.000000154000,  49.20000,
,,,-00.000000153600,  49.20000,
,,,-00.000000153200,  49.20000,
,,,-00.000000152800,  49.20000,
,,,-00.000000152400,  49.20000,
,,,-00.000000152000,  49.20000,
,,,-00.000000151600,  49.20000,
,,,-00.000000151200,  49.20000,
,,,-00.000000150800,  49.20000,
,,,-00.000000150400,  49.20000,
,,,-00.000000150000,  49.20000,
,,,-00.000000149600,  49.20000,
,,,-00.000000149200,  49.20000,
,,,-00.000000148800,  49.20000,
,,,-00.000000148400,  49.20000,
,,,-00.000000148000,  49.20000,
,,,-00.000000147600,  49.20000,
,,,-00.000000147200,  49.20000,
,,,-00.000000146800,  49.20000,
,,,-00.000000146400,  49.20000,
,,,-00.000000146000,  49.20000,
,,,-00.000000145600,  49.20000,
,,,-00.000000145200,  49.20000,
,,,-00.000000144800,  49.20000,
,,,-00.000000144400,  49.20000,
,,,-00.000000144000,  49.20000,
,,,-00.000000143600,  49.20000,
,,,-00.000000143200,  49.20000,
,,,-00.000000142800,  49.20000,
,,,-00.000000142400,  49.20000,
,,,-00.000000142000,  49.20000,
,,,-00.000000141600,  49.20000,
,,,-00.000000141200,  49.20000,
,,,-00.000000140800,  49.20000,
,,,-00.000000140400,  49.20000,
,,,-00.000000140000,  49.20000,
,,,-00.000000139600,  49.20000,
,,,-00.000000139200,  49.20000,
,,,-00.000000138800,  49.20000,
,,,-00.000000138400,  49.20000,
,,,-00.000000138000,  49.20000,
,,,-00.000000137600,  49.20000,
,,,-00.000000137200,  49.20000,
,,,-00.000000136800,  49.20000,
,,,-00.000000136400,  49.20000,
,,,-00.000000136000,  49.20000,
,,,-00.000000135600,  49.20000,
,,,-00.000000135200,  49.20000,
,,,-00.000000134800,  49.20000,
,,,-00.000000134400,  49.20000,
,,,-00.000000134000,  49.20000,
,,,-00.000000133600,  49.20000,
,,,-00.000000133200,  49.20000,
,,,-00.000000132800,  49.20000,
,,,-00.000000132400,  49.20000,
,,,-00.000000132000,  49.20000,
,,,-00.000000131600,  49.20000,
,,,-00.000000131200,  49.20000,
,,,-00.000000130800,  49.20000,
,,,-00.000000130400,  49.20000,
,,,-00.000000130000,  49.20000,
,,,-00.000000129600,  49.20000,
,,,-00.000000129200,  49.20000,
,,,-00.000000128800,  49.20000,
,,,-00.000000128400,  49.20000,
,,,-00.000000128000,  49.20000,
,,,-00.000000127600,  49.20000,
,,,-00.000000127200,  49.20000,
,,,-00.000000126800,  49.20000,
,,,-00.000000126400,  49.20000,
,,,-00.000000126000,  49.20000,
,,,-00.000000125600,  49.20000,
,,,-00.000000125200,  49.20000,
,,,-00.000000124800,  49.20000,
,,,-00.000000124400,  49.20000,
,,,-00.000000124000,  49.20000,
,,,-00.000000123600,  49.20000,
,,,-00.000000123200,  49.20000,
,,,-00.000000122800,  49.20000,
,,,-00.000000122400,  49.20000,
,,,-00.000000122000,  49.20000,
,,,-00.000000121600,  49.20000,
,,,-00.000000121200,  49.20000,
,,,-00.000000120800,  49.20000,
,,,-00.000000120400,  49.20000,
,,,-00.000000120000,  49.20000,
,,,-00.000000119600,  49.20000,
,,,-00.000000119200,  49.20000,
,,,-00.000000118800,  49.20000,
,,,-00.000000118400,  49.20000,
,,,-00.000000118000,  49.20000,
,,,-00.000000117600,  49.20000,
,,,-00.000000117200,  49.20000,
,,,-00.000000116800,  49.20000,
,,,-00.000000116400,  49.20000,
,,,-00.000000116000,  49.20000,
,,,-00.000000115600,  49.20000,
,,,-00.000000115200,  49.20000,
,,,-00.000000114800,  49.20000,
,,,-00.000000114400,  49.20000,
,,,-00.000000114000,  49.20000,
,,,-00.000000113600,  49.20000,
,,,-00.000000113200,  49.20000,
,,,-00.000000112800,  49.20000,
,,,-00.000000112400,  49.20000,
,,,-00.000000112000,  49.20000,
,,,-00.000000111600,  49.20000,
,,,-00.000000111200,  49.20000,
,,,-00.000000110800,  49.20000,
,,,-00.000000110400,  49.20000,
,,,-00.000000110000,  49.20000,
,,,-00.000000109600,  49.20000,
,,,-00.000000109200,  49.20000,
,,,-00.000000108800,  49.20000,
,,,-00.000000108400,  49.20000,
,,,-00.000000108000,  49.20000,
,,,-00.000000107600,  49.20000,
,,,-00.000000107200,  49.20000,
,,,-00.000000106800,  49.20000,
,,,-00.000000106400,  49.20000,
,,,-00.000000106000,  49.20000,
,,,-00.000000105600,  49.20000,
,,,-00.000000105200,  49.20000,
,,,-00.000000104800,  49.20000,
,,,-00.000000104400,  49.20000,
,,,-00.000000104000,  49.20000,
,,,-00.000000103600,  49.20000,
,,,-00.000000103200,  49.20000,
,,,-00.000000102800,  49.20000,
,,,-00.000000102400,  49.20000,
,,,-00.000000102000,  49.20000,
,,,-00.000000101600,  49.20000,
,,,-00.000000101200,  49.20000,
,,,-00.000000100800,  49.20000,
,,,-00.000000100400,  49.20000,
,,,-00.000000100000,  49.20000,
,,,-00.000000099600,  49.20000,
,,,-00.000000099200,  49.20000,
,,,-00.000000098800,  49.20000,
,,,-00.000000098400,  49.20000,
,,,-00.000000098000,  49.20000,
,,,-00.000000097600,  49.20000,
,,,-00.000000097200,  49.20000,
,,,-00.000000096800,  49.20000,
,,,-00.000000096400,  49.20000,
,,,-00.000000096000,  49.20000,
,,,-00.000000095600,  49.20000,
,,,-00.000000095200,  49.20000,
,,,-00.000000094800,  48.80000,
,,,-00.000000094400,  48.80000,
,,,-00.000000094000,  49.20000,
,,,-00.000000093600,  49.20000,
,,,-00.000000093200,  49.20000,
,,,-00.000000092800,  49.20000,
,,,-00.000000092400,  49.20000,
,,,-00.000000092000,  49.20000,
,,,-00.000000091600,  49.20000,
,,,-00.000000091200,  49.20000,
,,,-00.000000090800,  49.20000,
,,,-00.000000090400,  49.20000,
,,,-00.000000090000,  49.20000,
,,,-00.000000089600,  49.20000,
,,,-00.000000089200,  49.20000,
,,,-00.000000088800,  49.20000,
,,,-00.000000088400,  49.20000,
,,,-00.000000088000,  49.60000,
,,,-00.000000087600,  49.60000,
,,,-00.000000087200,  49.60000,
,,,-00.000000086800,  49.60000,
,,,-00.000000086400,  49.60000,
,,,-00.000000086000,  49.60000,
,,,-00.000000085600,  49.60000,
,,,-00.000000085200,  49.60000,
,,,-00.000000084800,  49.60000,
,,,-00.000000084400,  49.60000,
,,,-00.000000084000,  49.60000,
,,,-00.000000083600,  49.60000,
,,,-00.000000083200,  49.60000,
,,,-00.000000082800,  49.60000,
,,,-00.000000082400,  49.60000,
,,,-00.000000082000,  49.60000,
,,,-00.000000081600,  49.60000,
,,,-00.000000081200,  49.60000,
,,,-00.000000080800,  49.60000,
,,,-00.000000080400,  49.60000,
,,,-00.000000080000,  49.60000,
,,,-00.000000079600,  49.60000,
,,,-00.000000079200,  49.60000,
,,,-00.000000078800,  49.60000,
,,,-00.000000078400,  49.60000,
,,,-00.000000078000,  49.60000,
,,,-00.000000077600,  49.60000,
,,,-00.000000077200,  49.60000,
,,,-00.000000076800,  49.60000,
,,,-00.000000076400,  49.60000,
,,,-00.000000076000,  49.20000,
,,,-00.000000075600,  49.60000,
,,,-00.000000075200,  49.20000,
,,,-00.000000074800,  49.20000,
,,,-00.000000074400,  49.20000,
,,,-00.000000074000,  49.20000,
,,,-00.000000073600,  49.20000,
,,,-00.000000073200,  49.20000,
,,,-00.000000072800,  49.20000,
,,,-00.000000072400,  49.20000,
,,,-00.000000072000,  49.20000,
,,,-00.000000071600,  49.20000,
,,,-00.000000071200,  49.20000,
,,,-00.000000070800,  48.80000,
,,,-00.000000070400,  48.80000,
,,,-00.000000070000,  48.80000,
,,,-00.000000069600,  48.80000,
,,,-00.000000069200,  48.40000,
,,,-00.000000068800,  48.40000,
,,,-00.000000068400,  48.40000,
,,,-00.000000068000,  48.00000,
,,,-00.000000067600,  48.00000,
,,,-00.000000067200,  48.00000,
,,,-00.000000066800,  48.00000,
,,,-00.000000066400,  47.60000,
,,,-00.000000066000,  47.60000,
,,,-00.000000065600,  47.20000,
,,,-00.000000065200,  47.20000,
,,,-00.000000064800,  46.80000,
,,,-00.000000064400,  46.80000,
,,,-00.000000064000,  46.40000,
,,,-00.000000063600,  46.40000,
,,,-00.000000063200,  46.00000,
,,,-00.000000062800,  46.00000,
,,,-00.000000062400,  45.60000,
,,,-00.000000062000,  45.20000,
,,,-00.000000061600,  45.20000,
,,,-00.000000061200,  44.80000,
,,,-00.000000060800,  44.80000,
,,,-00.000000060400,  44.40000,
,,,-00.000000060000,  44.00000,
,,,-00.000000059600,  44.00000,
,,,-00.000000059200,  44.00000,
,,,-00.000000058800,  43.60000,
,,,-00.000000058400,  43.20000,
,,,-00.000000058000,  42.80000,
,,,-00.000000057600,  42.80000,
,,,-00.000000057200,  42.40000,
,,,-00.000000056800,  42.40000,
,,,-00.000000056400,  42.00000,
,,,-00.000000056000,  42.00000,
,,,-00.000000055600,  41.60000,
,,,-00.000000055200,  41.60000,
,,,-00.000000054800,  41.20000,
,,,-00.000000054400,  40.80000,
,,,-00.000000054000,  40.80000,
,,,-00.000000053600,  40.40000,
,,,-00.000000053200,  40.40000,
,,,-00.000000052800,  40.00000,
,,,-00.000000052400,  39.60000,
,,,-00.000000052000,  39.60000,
,,,-00.000000051600,  39.20000,
,,,-00.000000051200,  39.20000,
,,,-00.000000050800,  38.80000,
,,,-00.000000050400,  38.40000,
,,,-00.000000050000,  38.40000,
,,,-00.000000049600,  38.00000,
,,,-00.000000049200,  38.00000,
,,,-00.000000048800,  37.60000,
,,,-00.000000048400,  37.20000,
,,,-00.000000048000,  36.80000,
,,,-00.000000047600,  36.80000,
,,,-00.000000047200,  36.40000,
,,,-00.000000046800,  36.00000,
,,,-00.000000046400,  36.00000,
,,,-00.000000046000,  35.60000,
,,,-00.000000045600,  35.20000,
,,,-00.000000045200,  35.20000,
,,,-00.000000044800,  34.80000,
,,,-00.000000044400,  34.40000,
,,,-00.000000044000,  34.40000,
,,,-00.000000043600,  34.00000,
,,,-00.000000043200,  34.00000,
,,,-00.000000042800,  33.60000,
,,,-00.000000042400,  33.20000,
,,,-00.000000042000,  32.80000,
,,,-00.000000041600,  32.80000,
,,,-00.000000041200,  32.40000,
,,,-00.000000040800,  32.40000,
,,,-00.000000040400,  32.00000,
,,,-00.000000040000,  31.60000,
,,,-00.000000039600,  31.60000,
,,,-00.000000039200,  31.20000,
,,,-00.000000038800,  31.20000,
,,,-00.000000038400,  30.80000,
,,,-00.000000038000,  30.40000,
,,,-00.000000037600,  30.40000,
,,,-00.000000037200,  30.00000,
,,,-00.000000036800,  29.60000,
,,,-00.000000036400,  29.60000,
,,,-00.000000036000,  29.20000,
,,,-00.000000035600,  29.20000,
,,,-00.000000035200,  28.80000,
,,,-00.000000034800,  28.40000,
,,,-00.000000034400,  28.40000,
,,,-00.000000034000,  28.00000,
,,,-00.000000033600,  28.00000,
,,,-00.000000033200,  27.60000,
,,,-00.000000032800,  27.60000,
,,,-00.000000032400,  27.20000,
,,,-00.000000032000,  27.20000,
,,,-00.000000031600,  26.80000,
,,,-00.000000031200,  26.80000,
,,,-00.000000030800,  26.40000,
,,,-00.000000030400,  26.40000,
,,,-00.000000030000,  26.00000,
,,,-00.000000029600,  26.00000,
,,,-00.000000029200,  25.60000,
,,,-00.000000028800,  25.60000,
,,,-00.000000028400,  25.20000,
,,,-00.000000028000,  25.20000,
,,,-00.000000027600,  24.80000,
,,,-00.000000027200,  24.80000,
,,,-00.000000026800,  24.40000,
,,,-00.000000026400,  24.00000,
,,,-00.000000026000,  24.00000,
,,,-00.000000025600,  24.00000,
,,,-00.000000025200,  23.60000,
,,,-00.000000024800,  23.60000,
,,,-00.000000024400,  23.20000,
,,,-00.000000024000,  22.80000,
,,,-00.000000023600,  22.80000,
,,,-00.000000023200,  22.40000,
,,,-00.000000022800,  22.40000,
,,,-00.000000022400,  22.00000,
,,,-00.000000022000,  22.00000,
,,,-00.000000021600,  22.00000,
,,,-00.000000021200,  21.60000,
,,,-00.000000020800,  21.60000,
,,,-00.000000020400,  21.20000,
,,,-00.000000020000,  21.20000,
,,,-00.000000019600,  20.80000,
,,,-00.000000019200,  20.80000,
,,,-00.000000018800,  20.40000,
,,,-00.000000018400,  20.40000,
,,,-00.000000018000,  20.00000,
,,,-00.000000017600,  20.00000,
,,,-00.000000017200,  19.60000,
,,,-00.000000016800,  19.60000,
,,,-00.000000016400,  19.20000,
,,,-00.000000016000,  18.80000,
,,,-00.000000015600,  18.80000,
,,,-00.000000015200,  18.80000,
,,,-00.000000014800,  18.40000,
,,,-00.000000014400,  18.40000,
,,,-00.000000014000,  18.00000,
,,,-00.000000013600,  18.00000,
,,,-00.000000013200,  17.60000,
,,,-00.000000012800,  17.60000,
,,,-00.000000012400,  17.20000,
,,,-00.000000012000,  17.20000,
,,,-00.000000011600,  16.80000,
,,,-00.000000011200,  16.80000,
,,,-00.000000010800,  16.40000,
,,,-00.000000010400,  16.00000,
,,,-00.000000010000,  16.00000,
,,,-00.000000009600,  16.00000,
,,,-00.000000009200,  15.60000,
,,,-00.000000008800,  15.60000,
,,,-00.000000008400,  15.20000,
,,,-00.000000008000,  15.20000,
,,,-00.000000007600,  14.80000,
,,,-00.000000007200,  14.80000,
,,,-00.000000006800,  14.40000,
,,,-00.000000006400,  14.40000,
,,,-00.000000006000,  14.00000,
,,,-00.000000005600,  14.00000,
,,,-00.000000005200,  14.00000,
,,,-00.000000004800,  13.60000,
,,,-00.000000004400,  13.20000,
,,,-00.000000004000,  13.20000,
,,,-00.000000003600,  13.20000,
,,,-00.000000003200,  12.80000,
,,,-00.000000002800,  12.80000,
,,,-00.000000002400,  12.40000,
,,,-00.000000002000,  12.40000,
,,,-00.000000001600,  12.40000,
,,,-00.000000001200,  12.00000,
,,,-00.000000000800,  12.00000,
,,,-00.000000000400,  11.60000,
,,,-00.000000000000,  11.60000,
,,,00.000000000400,  11.60000,
,,,00.000000000800,  11.20000,
,,,00.000000001200,  11.20000,
,,,00.000000001600,  11.20000,
,,,00.000000002000,  10.80000,
,,,00.000000002400,  10.80000,
,,,00.000000002800,  10.80000,
,,,00.000000003200,  10.40000,
,,,00.000000003600,  10.40000,
,,,00.000000004000,  10.40000,
,,,00.000000004400,  10.00000,
,,,00.000000004800,  10.00000,
,,,00.000000005200,  10.00000,
,,,00.000000005600,   9.60000,
,,,00.000000006000,   9.60000,
,,,00.000000006400,   9.60000,
,,,00.000000006800,   9.20000,
,,,00.000000007200,   9.20000,
,,,00.000000007600,   9.20000,
,,,00.000000008000,   9.20000,
,,,00.000000008400,   9.20000,
,,,00.000000008800,   8.80000,
,,,00.000000009200,   8.80000,
,,,00.000000009600,   8.80000,
,,,00.000000010000,   8.40000,
,,,00.000000010400,   8.40000,
,,,00.000000010800,   8.40000,
,,,00.000000011200,   8.40000,
,,,00.000000011600,   8.00000,
,,,00.000000012000,   8.00000,
,,,00.000000012400,   8.00000,
,,,00.000000012800,   8.00000,
,,,00.000000013200,   8.00000,
,,,00.000000013600,   8.00000,
,,,00.000000014000,   7.60000,
,,,00.000000014400,   7.60000,
,,,00.000000014800,   7.60000,
,,,00.000000015200,   7.60000,
,,,00.000000015600,   7.60000,
,,,00.000000016000,   7.60000,
,,,00.000000016400,   7.20000,
,,,00.000000016800,   7.20000,
,,,00.000000017200,   7.20000,
,,,00.000000017600,   7.20000,
,,,00.000000018000,   7.20000,
,,,00.000000018400,   7.20000,
,,,00.000000018800,   7.20000,
,,,00.000000019200,   6.80000,
,,,00.000000019600,   6.80000,
,,,00.000000020000,   6.80000,
,,,00.000000020400,   6.80000,
,,,00.000000020800,   6.80000,
,,,00.000000021200,   6.80000,
,,,00.000000021600,   6.40000,
,,,00.000000022000,   6.40000,
,,,00.000000022400,   6.40000,
,,,00.000000022800,   6.40000,
,,,00.000000023200,   6.40000,
,,,00.000000023600,   6.40000,
,,,00.000000024000,   6.40000,
,,,00.000000024400,   6.40000,
,,,00.000000024800,   6.00000,
,,,00.000000025200,   6.00000,
,,,00.000000025600,   6.00000,
,,,00.000000026000,   6.00000,
,,,00.000000026400,   6.00000,
,,,00.000000026800,   5.60000,
,,,00.000000027200,   5.60000,
,,,00.000000027600,   5.60000,
,,,00.000000028000,   5.60000,
,,,00.000000028400,   5.60000,
,,,00.000000028800,   5.60000,
,,,00.000000029200,   5.60000,
,,,00.000000029600,   5.60000,
,,,00.000000030000,   5.20000,
,,,00.000000030400,   5.20000,
,,,00.000000030800,   5.20000,
,,,00.000000031200,   5.20000,
,,,00.000000031600,   5.20000,
,,,00.000000032000,   5.20000,
,,,00.000000032400,   5.20000,
,,,00.000000032800,   4.80000,
,,,00.000000033200,   4.80000,
,,,00.000000033600,   4.80000,
,,,00.000000034000,   4.80000,
,,,00.000000034400,   4.80000,
,,,00.000000034800,   4.80000,
,,,00.000000035200,   4.40000,
,,,00.000000035600,   4.40000,
,,,00.000000036000,   4.40000,
,,,00.000000036400,   4.40000,
,,,00.000000036800,   4.40000,
,,,00.000000037200,   4.40000,
,,,00.000000037600,   4.00000,
,,,00.000000038000,   4.00000,
,,,00.000000038400,   4.00000,
,,,00.000000038800,   4.00000,
,,,00.000000039200,   4.00000,
,,,00.000000039600,   4.00000,
,,,00.000000040000,   4.00000,
,,,00.000000040400,   4.00000,
,,,00.000000040800,   3.60000,
,,,00.000000041200,   3.60000,
,,,00.000000041600,   3.60000,
,,,00.000000042000,   3.20000,
,,,00.000000042400,   3.20000,
