E2_Signale_Auf_Leitungen/Bilder/ALL0005/F0005CH1.CSV

Record Length,2.500000e+03,,  -0.000000720000,  -3.20000,
Sample Interval,4.000000e-09,,  -0.000000716000,  -3.20000,
Trigger Point,1.800000000000e+02,,  -0.000000712000,  -3.60000,
,,,  -0.000000708000,  -3.20000,
,,,  -0.000000704000,  -3.40000,
,,,  -0.000000700000,  -3.20000,
Source,CH1,,  -0.000000696000,  -3.20000,
Vertical Units,V,,  -0.000000692000,  -3.20000,
Vertical Scale,5.000000e+00,,  -0.000000688000,  -3.60000,
Vertical Offset,-1.340000e+01,,  -0.000000684000,  -3.40000,
Horizontal Units,s,,  -0.000000680000,  -3.40000,
Horizontal Scale,1.000000e-06,,  -0.000000676000,  -3.00000,
Pt Fmt,Y,,  -0.000000672000,  -3.40000,
Yzero,0.000000e+00,,  -0.000000668000,  -3.60000,
Probe Atten,1.000000e+01,,  -0.000000664000,  -3.40000,
Model Number,TDS1001B,,  -0.000000660000,  -3.20000,
Serial Number,C059827,,  -0.000000656000,  -3.40000,
Firmware Version,FV:v22.01,,  -0.000000652000,  -3.40000,
,,,-00.000000648000,  -3.20000,
,,,-00.000000644000,  -3.40000,
,,,-00.000000640000,  -3.20000,
,,,-00.000000636000,  -3.40000,
,,,-00.000000632000,  -3.20000,
,,,-00.000000628000,  -3.40000,
,,,-00.000000624000,  -3.60000,
,,,-00.000000620000,  -3.40000,
,,,-00.000000616000,  -3.40000,
,,,-00.000000612000,  -3.40000,
,,,-00.000000608000,  -3.60000,
,,,-00.000000604000,  -3.60000,
,,,-00.000000600000,  -3.20000,
,,,-00.000000596000,  -3.40000,
,,,-00.000000592000,  -3.40000,
,,,-00.000000588000,  -3.20000,
,,,-00.000000584000,  -3.20000,
,,,-00.000000580000,  -3.40000,
,,,-00.000000576000,  -3.40000,
,,,-00.000000572000,  -3.40000,
,,,-00.000000568000,  -3.40000,
,,,-00.000000564000,  -3.40000,
,,,-00.000000560000,  -3.60000,
,,,-00.000000556000,  -3.60000,
,,,-00.000000552000,  -3.40000,
,,,-00.000000548000,  -3.40000,
,,,-00.000000544000,  -3.40000,
,,,-00.000000540000,  -3.60000,
,,,-00.000000536000,  -3.40000,
,,,-00.000000532000,  -3.40000,
,,,-00.000000528000,  -3.40000,
,,,-00.000000524000,  -3.40000,
,,,-00.000000520000,  -3.40000,
,,,-00.000000516000,  -3.20000,
,,,-00.000000512000,  -3.40000,
,,,-00.000000508000,  -3.40000,
,,,-00.000000504000,  -3.40000,
,,,-00.000000500000,  -3.20000,
,,,-00.000000496000,  -3.20000,
,,,-00.000000492000,  -3.40000,
,,,-00.000000488000,  -3.20000,
,,,-00.000000484000,  -3.00000,
,,,-00.000000480000,  -3.40000,
,,,-00.000000476000,  -3.40000,
,,,-00.000000472000,  -3.40000,
,,,-00.000000468000,  -3.20000,
,,,-00.000000464000,  -3.40000,
,,,-00.000000460000,  -3.20000,
,,,-00.000000456000,  -3.40000,
,,,-00.000000452000,  -3.20000,
,,,-00.000000448000,  -3.40000,
,,,-00.000000444000,  -3.60000,
,,,-00.000000440000,  -3.40000,
,,,-00.000000436000,  -3.40000,
,,,-00.000000432000,  -3.20000,
,,,-00.000000428000,  -3.20000,
,,,-00.000000424000,  -3.40000,
,,,-00.000000420000,  -3.60000,
,,,-00.000000416000,  -3.40000,
,,,-00.000000412000,  -3.40000,
,,,-00.000000408000,  -3.60000,
,,,-00.000000404000,  -3.40000,
,,,-00.000000400000,  -3.20000,
,,,-00.000000396000,  -3.00000,
,,,-00.000000392000,  -3.00000,
,,,-00.000000388000,  -3.20000,
,,,-00.000000384000,  -3.20000,
,,,-00.000000380000,  -3.40000,
,,,-00.000000376000,  -3.00000,
,,,-00.000000372000,  -3.20000,
,,,-00.000000368000,  -3.20000,
,,,-00.000000364000,  -3.20000,
,,,-00.000000360000,  -3.20000,
,,,-00.000000356000,  -3.40000,
,,,-00.000000352000,  -3.20000,
,,,-00.000000348000,  -3.40000,
,,,-00.000000344000,  -3.40000,
,,,-00.000000340000,  -3.40000,
,,,-00.000000336000,  -3.20000,
,,,-00.000000332000,  -3.20000,
,,,-00.000000328000,  -3.40000,
,,,-00.000000324000,  -3.20000,
,,,-00.000000320000,  -3.60000,
,,,-00.000000316000,  -3.60000,
,,,-00.000000312000,  -3.20000,
,,,-00.000000308000,  -3.20000,
,,,-00.000000304000,  -3.60000,
,,,-00.000000300000,  -3.20000,
,,,-00.000000296000,  -3.20000,
,,,-00.000000292000,  -3.40000,
,,,-00.000000288000,  -3.20000,
,,,-00.000000284000,  -3.20000,
,,,-00.000000280000,  -3.20000,
,,,-00.000000276000,  -3.20000,
,,,-00.000000272000,  -3.20000,
,,,-00.000000268000,  -3.20000,
,,,-00.000000264000,  -3.00000,
,,,-00.000000260000,  -3.20000,
,,,-00.000000256000,  -3.40000,
,,,-00.000000252000,  -3.60000,
,,,-00.000000248000,  -3.20000,
,,,-00.000000244000,  -3.40000,
,,,-00.000000240000,  -3.20000,
,,,-00.000000236000,  -3.20000,
,,,-00.000000232000,  -3.20000,
,,,-00.000000228000,  -3.20000,
,,,-00.000000224000,  -3.60000,
,,,-00.000000220000,  -3.40000,
,,,-00.000000216000,  -3.40000,
,,,-00.000000212000,  -3.20000,
,,,-00.000000208000,  -3.40000,
,,,-00.000000204000,  -3.20000,
,,,-00.000000200000,  -3.40000,
,,,-00.000000196000,  -3.20000,
,,,-00.000000192000,  -3.00000,
,,,-00.000000188000,  -2.80000,
,,,-00.000000184000,  -3.20000,
,,,-00.000000180000,  -3.20000,
,,,-00.000000176000,  -3.20000,
,,,-00.000000172000,  -3.00000,
,,,-00.000000168000,  -3.40000,
,,,-00.000000164000,  -3.00000,
,,,-00.000000160000,  -3.00000,
,,,-00.000000156000,  -3.20000,
,,,-00.000000152000,  -3.20000,
,,,-00.000000148000,  -3.20000,
,,,-00.000000144000,  -3.20000,
,,,-00.000000140000,  -3.00000,
,,,-00.000000136000,  -2.80000,
,,,-00.000000132000,  -3.00000,
,,,-00.000000128000,  -3.00000,
,,,-00.000000124000,  -3.00000,
,,,-00.000000120000,  -3.00000,
,,,-00.000000116000,  -3.00000,
,,,-00.000000112000,  -3.00000,
,,,-00.000000108000,  -3.00000,
,,,-00.000000104000,  -3.00000,
,,,-00.000000100000,  -2.80000,
,,,-00.000000096000,  -2.80000,
,,,-00.000000092000,  -3.00000,
,,,-00.000000088000,  -2.80000,
,,,-00.000000084000,  -2.80000,
,,,-00.000000080000,  -2.80000,
,,,-00.000000076000,  -2.80000,
,,,-00.000000072000,  -2.80000,
,,,-00.000000068000,  -2.80000,
,,,-00.000000064000,  -2.40000,
,,,-00.000000060000,  -2.60000,
,,,-00.000000056000,  -2.60000,
,,,-00.000000052000,  -2.60000,
,,,-00.000000048000,  -2.60000,
,,,-00.000000044000,  -2.60000,
,,,-00.000000040000,  -2.20000,
,,,-00.000000036000,  -2.20000,
,,,-00.000000032000,  -2.20000,
,,,-00.000000028000,  -2.00000,
,,,-00.000000024000,  -2.20000,
,,,-00.000000020000,  -2.00000,
,,,-00.000000016000,  -1.80000,
,,,-00.000000012000,  -1.40000,
,,,-00.000000008000,  -0.60000,
,,,-00.000000004000,   2.00000,
,,,-00.000000000000,   6.20000,
,,,00.000000004000,  11.60000,
,,,00.000000008000,  16.20000,
,,,00.000000012000,  18.40000,
,,,00.000000016000,  19.20000,
,,,00.000000020000,  19.20000,
,,,00.000000024000,  18.40000,
,,,00.000000028000,  18.80000,
,,,00.000000032000,  18.80000,
,,,00.000000036000,  19.20000,
,,,00.000000040000,  19.60000,
,,,00.000000044000,  20.00000,
,,,00.000000048000,  20.00000,
,,,00.000000052000,  20.20000,
,,,00.000000056000,  20.40000,
,,,00.000000060000,  20.60000,
,,,00.000000064000,  20.60000,
,,,00.000000068000,  21.00000,
,,,00.000000072000,  21.00000,
,,,00.000000076000,  21.00000,
,,,00.000000080000,  21.40000,
,,,00.000000084000,  21.60000,
,,,00.000000088000,  21.60000,
,,,00.000000092000,  21.60000,
,,,00.000000096000,  21.60000,
,,,00.000000100000,  21.80000,
,,,00.000000104000,  21.80000,
,,,00.000000108000,  21.80000,
,,,00.000000112000,  21.80000,
,,,00.000000116000,  22.00000,
,,,00.000000120000,  21.60000,
,,,00.000000124000,  22.20000,
,,,00.000000128000,  21.80000,
,,,00.000000132000,  21.80000,
,,,00.000000136000,  22.00000,
,,,00.000000140000,  22.00000,
,,,00.000000144000,  22.20000,
,,,00.000000148000,  21.80000,
,,,00.000000152000,  22.00000,
,,,00.000000156000,  21.80000,
,,,00.000000160000,  22.00000,
,,,00.000000164000,  22.00000,
,,,00.000000168000,  22.40000,
,,,00.000000172000,  22.00000,
,,,00.000000176000,  22.00000,
,,,00.000000180000,  22.40000,
,,,00.000000184000,  22.20000,
,,,00.000000188000,  22.20000,
,,,00.000000192000,  22.20000,
,,,00.000000196000,  22.40000,
,,,00.000000200000,  22.20000,
,,,00.000000204000,  22.20000,
,,,00.000000208000,  22.40000,
,,,00.000000212000,  22.00000,
,,,00.000000216000,  22.40000,
,,,00.000000220000,  22.40000,
,,,00.000000224000,  22.20000,
,,,00.000000228000,  22.40000,
,,,00.000000232000,  22.20000,
,,,00.000000236000,  22.20000,
,,,00.000000240000,  22.40000,
,,,00.000000244000,  22.20000,
,,,00.000000248000,  22.40000,
,,,00.000000252000,  22.40000,
,,,00.000000256000,  22.20000,
,,,00.000000260000,  22.20000,
,,,00.000000264000,  22.40000,
,,,00.000000268000,  22.40000,
,,,00.000000272000,  22.40000,
,,,00.000000276000,  22.20000,
,,,00.000000280000,  22.40000,
,,,00.000000284000,  22.40000,
,,,00.000000288000,  22.40000,
,,,00.000000292000,  22.40000,
,,,00.000000296000,  22.40000,
,,,00.000000300000,  22.40000,
,,,00.000000304000,  22.20000,
,,,00.000000308000,  22.20000,
,,,00.000000312000,  22.40000,
,,,00.000000316000,  22.20000,
,,,00.000000320000,  22.40000,
,,,00.000000324000,  22.60000,
,,,00.000000328000,  22.40000,
,,,00.000000332000,  22.60000,
,,,00.000000336000,  22.60000,
,,,00.000000340000,  22.80000,
,,,00.000000344000,  22.40000,
,,,00.000000348000,  22.60000,
,,,00.000000352000,  22.40000,
,,,00.000000356000,  22.60000,
,,,00.000000360000,  22.40000,
,,,00.000000364000,  22.40000,
,,,00.000000368000,  22.60000,
,,,00.000000372000,  22.40000,
,,,00.000000376000,  22.60000,
,,,00.000000380000,  22.20000,
,,,00.000000384000,  22.80000,
,,,00.000000388000,  22.60000,
,,,00.000000392000,  22.40000,
,,,00.000000396000,  22.60000,
,,,00.000000400000,  22.60000,
,,,00.000000404000,  22.80000,
,,,00.000000408000,  22.60000,
,,,00.000000412000,  22.60000,
,,,00.000000416000,  22.60000,
,,,00.000000420000,  22.80000,
,,,00.000000424000,  22.60000,
,,,00.000000428000,  22.80000,
,,,00.000000432000,  23.00000,
,,,00.000000436000,  22.60000,
,,,00.000000440000,  22.60000,
,,,00.000000444000,  22.40000,
,,,00.000000448000,  22.60000,
,,,00.000000452000,  22.60000,
,,,00.000000456000,  22.80000,
,,,00.000000460000,  22.60000,
,,,00.000000464000,  22.80000,
,,,00.000000468000,  22.80000,
,,,00.000000472000,  23.00000,
,,,00.000000476000,  23.00000,
,,,00.000000480000,  22.80000,
,,,00.000000484000,  22.60000,
,,,00.000000488000,  23.00000,
,,,00.000000492000,  23.00000,
,,,00.000000496000,  22.80000,
,,,00.000000500000,  23.00000,
,,,00.000000504000,  22.60000,
,,,00.000000508000,  22.80000,
,,,00.000000512000,  22.80000,
,,,00.000000516000,  22.80000,
,,,00.000000520000,  23.00000,
,,,00.000000524000,  22.80000,
,,,00.000000528000,  22.80000,
,,,00.000000532000,  22.80000,
,,,00.000000536000,  22.80000,
,,,00.000000540000,  22.80000,
,,,00.000000544000,  22.80000,
,,,00.000000548000,  22.80000,
,,,00.000000552000,  22.80000,
,,,00.000000556000,  23.00000,
,,,00.000000560000,  22.80000,
,,,00.000000564000,  22.80000,
,,,00.000000568000,  23.00000,
,,,00.000000572000,  23.00000,
,,,00.000000576000,  23.00000,
,,,00.000000580000,  22.80000,
,,,00.000000584000,  23.00000,
,,,00.000000588000,  22.80000,
,,,00.000000592000,  23.20000,
,,,00.000000596000,  22.80000,
,,,00.000000600000,  22.60000,
,,,00.000000604000,  23.00000,
,,,00.000000608000,  22.80000,
,,,00.000000612000,  23.00000,
,,,00.000000616000,  23.00000,
,,,00.000000620000,  22.80000,
,,,00.000000624000,  22.80000,
,,,00.000000628000,  22.80000,
,,,00.000000632000,  23.00000,
,,,00.000000636000,  23.00000,
,,,00.000000640000,  22.80000,
,,,00.000000644000,  22.80000,
,,,00.000000648000,  23.20000,
,,,00.000000652000,  23.00000,
,,,00.000000656000,  23.00000,
,,,00.000000660000,  23.00000,
,,,00.000000664000,  23.00000,
,,,00.000000668000,  23.20000,
,,,00.000000672000,  23.20000,
,,,00.000000676000,  23.00000,
,,,00.000000680000,  23.20000,
,,,00.000000684000,  23.00000,
,,,00.000000688000,  23.20000,
,,,00.000000692000,  23.00000,
,,,00.000000696000,  23.00000,
,,,00.000000700000,  23.20000,
,,,00.000000704000,  23.00000,
,,,00.000000708000,  23.00000,
,,,00.000000712000,  23.00000,
,,,00.000000716000,  23.00000,
,,,00.000000720000,  23.20000,
,,,00.000000724000,  23.20000,
,,,00.000000728000,  23.20000,
,,,00.000000732000,  23.40000,
,,,00.000000736000,  23.20000,
,,,00.000000740000,  23.20000,
,,,00.000000744000,  23.00000,
,,,00.000000748000,  23.20000,
,,,00.000000752000,  23.20000,
,,,00.000000756000,  23.00000,
,,,00.000000760000,  23.20000,
,,,00.000000764000,  23.00000,
,,,00.000000768000,  23.00000,
,,,00.000000772000,  23.00000,
,,,00.000000776000,  23.20000,
,,,00.000000780000,  23.40000,
,,,00.000000784000,  23.20000,
,,,00.000000788000,  23.20000,
,,,00.000000792000,  23.20000,
,,,00.000000796000,  23.60000,
,,,00.000000800000,  23.40000,
,,,00.000000804000,  23.40000,
,,,00.000000808000,  23.20000,
,,,00.000000812000,  23.00000,
,,,00.000000816000,  23.00000,
,,,00.000000820000,  23.60000,
,,,00.000000824000,  23.40000,
,,,00.000000828000,  23.40000,
,,,00.000000832000,  23.40000,
,,,00.000000836000,  23.60000,
,,,00.000000840000,  23.60000,
,,,00.000000844000,  24.00000,
,,,00.000000848000,  24.20000,
,,,00.000000852000,  25.00000,
,,,00.000000856000,  25.40000,
,,,00.000000860000,  26.20000,
,,,00.000000864000,  26.60000,
,,,00.000000868000,  27.20000,
,,,00.000000872000,  27.20000,
,,,00.000000876000,  27.60000,
,,,00.000000880000,  27.80000,
,,,00.000000884000,  28.00000,
,,,00.000000888000,  28.20000,
,,,00.000000892000,  28.20000,
,,,00.000000896000,  28.20000,
,,,00.000000900000,  28.40000,
,,,00.000000904000,  28.80000,
,,,00.000000908000,  28.60000,
,,,00.000000912000,  28.60000,
,,,00.000000916000,  29.00000,
,,,00.000000920000,  28.80000,
,,,00.000000924000,  29.00000,
,,,00.000000928000,  29.00000,
,,,00.000000932000,  29.40000,
,,,00.000000936000,  29.00000,
,,,00.000000940000,  29.20000,
,,,00.000000944000,  29.20000,
,,,00.000000948000,  29.20000,
,,,00.000000952000,  29.40000,
,,,00.000000956000,  29.40000,
,,,00.000000960000,  29.00000,
,,,00.000000964000,  29.60000,
,,,00.000000968000,  29.60000,
,,,00.000000972000,  29.60000,
,,,00.000000976000,  29.20000,
,,,00.000000980000,  29.20000,
,,,00.000000984000,  29.20000,
,,,00.000000988000,  29.40000,
,,,00.000000992000,  29.20000,
,,,00.000000996000,  29.20000,
,,,00.000001000000,  29.40000,
,,,00.000001004000,  29.20000,
,,,00.000001008000,  29.60000,
,,,00.000001012000,  29.40000,
,,,00.000001016000,  29.20000,
,,,00.000001020000,  29.20000,
,,,00.000001024000,  29.20000,
,,,00.000001028000,  29.40000,
,,,00.000001032000,  29.40000,
,,,00.000001036000,  29.20000,
,,,00.000001040000,  29.20000,
,,,00.000001044000,  29.20000,
,,,00.000001048000,  29.40000,
,,,00.000001052000,  29.40000,
,,,00.000001056000,  29.20000,
,,,00.000001060000,  29.00000,
,,,00.000001064000,  29.20000,
,,,00.000001068000,  29.00000,
,,,00.000001072000,  29.20000,
,,,00.000001076000,  29.00000,
,,,00.000001080000,  29.00000,
,,,00.000001084000,  29.00000,
,,,00.000001088000,  28.80000,
,,,00.000001092000,  28.80000,
,,,00.000001096000,  28.80000,
,,,00.000001100000,  29.00000,
,,,00.000001104000,  29.00000,
,,,00.000001108000,  28.80000,
,,,00.000001112000,  28.60000,
,,,00.000001116000,  28.80000,
,,,00.000001120000,  28.60000,
,,,00.000001124000,  29.00000,
,,,00.000001128000,  28.60000,
,,,00.000001132000,  28.80000,
,,,00.000001136000,  28.60000,
,,,00.000001140000,  28.40000,
,,,00.000001144000,  28.40000,
,,,00.000001148000,  28.60000,
,,,00.000001152000,  28.40000,
,,,00.000001156000,  28.40000,
,,,00.000001160000,  28.40000,
,,,00.000001164000,  28.60000,
,,,00.000001168000,  28.40000,
,,,00.000001172000,  28.00000,
,,,00.000001176000,  28.40000,
,,,00.000001180000,  28.40000,
,,,00.000001184000,  28.20000,
,,,00.000001188000,  28.20000,
,,,00.000001192000,  28.20000,
,,,00.000001196000,  28.20000,
,,,00.000001200000,  28.20000,
,,,00.000001204000,  28.00000,
,,,00.000001208000,  27.80000,
,,,00.000001212000,  28.00000,
,,,00.000001216000,  28.00000,
,,,00.000001220000,  28.00000,
,,,00.000001224000,  27.80000,
,,,00.000001228000,  28.00000,
,,,00.000001232000,  27.80000,
,,,00.000001236000,  27.60000,
,,,00.000001240000,  27.40000,
,,,00.000001244000,  27.60000,
,,,00.000001248000,  27.60000,
,,,00.000001252000,  27.80000,
,,,00.000001256000,  28.00000,
,,,00.000001260000,  27.60000,
,,,00.000001264000,  27.60000,
,,,00.000001268000,  27.60000,
,,,00.000001272000,  27.40000,
,,,00.000001276000,  27.60000,
,,,00.000001280000,  27.60000,
,,,00.000001284000,  27.60000,
,,,00.000001288000,  27.40000,
,,,00.000001292000,  27.60000,
,,,00.000001296000,  27.40000,
,,,00.000001300000,  27.40000,
,,,00.000001304000,  27.40000,
,,,00.000001308000,  27.00000,
,,,00.000001312000,  27.00000,
,,,00.000001316000,  27.20000,
,,,00.000001320000,  27.20000,
,,,00.000001324000,  27.00000,
,,,00.000001328000,  27.00000,
,,,00.000001332000,  26.80000,
,,,00.000001336000,  27.20000,
,,,00.000001340000,  26.80000,
,,,00.000001344000,  27.00000,
,,,00.000001348000,  27.00000,
,,,00.000001352000,  26.80000,
,,,00.000001356000,  26.60000,
,,,00.000001360000,  27.00000,
,,,00.000001364000,  26.80000,
,,,00.000001368000,  26.80000,
,,,00.000001372000,  26.60000,
,,,00.000001376000,  27.00000,
,,,00.000001380000,  26.60000,
,,,00.000001384000,  26.40000,
,,,00.000001388000,  26.40000,
,,,00.000001392000,  26.40000,
,,,00.000001396000,  26.40000,
,,,00.000001400000,  26.00000,
,,,00.000001404000,  26.40000,
,,,00.000001408000,  26.40000,
,,,00.000001412000,  26.40000,
,,,00.000001416000,  26.20000,
,,,00.000001420000,  26.40000,
,,,00.000001424000,  26.00000,
,,,00.000001428000,  26.00000,
,,,00.000001432000,  26.20000,
,,,00.000001436000,  26.00000,
,,,00.000001440000,  26.00000,
,,,00.000001444000,  26.00000,
,,,00.000001448000,  26.00000,
,,,00.000001452000,  25.80000,
,,,00.000001456000,  26.00000,
,,,00.000001460000,  25.80000,
,,,00.000001464000,  26.00000,
,,,00.000001468000,  25.80000,
,,,00.000001472000,  25.80000,
,,,00.000001476000,  26.00000,
,,,00.000001480000,  25.80000,
,,,00.000001484000,  25.80000,
,,,00.000001488000,  25.60000,
,,,00.000001492000,  25.60000,
,,,00.000001496000,  25.60000,
,,,00.000001500000,  25.60000,
,,,00.000001504000,  25.60000,
,,,00.000001508000,  25.20000,
,,,00.000001512000,  25.60000,
,,,00.000001516000,  25.40000,
,,,00.000001520000,  25.40000,
,,,00.000001524000,  25.40000,
,,,00.000001528000,  25.40000,
,,,00.000001532000,  25.20000,
,,,00.000001536000,  25.40000,
,,,00.000001540000,  25.20000,
,,,00.000001544000,  25.40000,
,,,00.000001548000,  25.20000,
,,,00.000001552000,  25.00000,
,,,00.000001556000,  24.80000,
,,,00.000001560000,  25.00000,
,,,00.000001564000,  25.00000,
,,,00.000001568000,  24.80000,
,,,00.000001572000,  25.00000,
,,,00.000001576000,  25.00000,
,,,00.000001580000,  24.60000,
,,,00.000001584000,  24.80000,
,,,00.000001588000,  24.80000,
,,,00.000001592000,  24.60000,
,,,00.000001596000,  24.60000,
,,,00.000001600000,  24.60000,
,,,00.000001604000,  24.40000,
,,,00.000001608000,  24.40000,
,,,00.000001612000,  24.40000,
,,,00.000001616000,  24.60000,
,,,00.000001620000,  24.20000,
,,,00.000001624000,  24.40000,
,,,00.000001628000,  24.40000,
,,,00.000001632000,  24.20000,
,,,00.000001636000,  24.40000,
,,,00.000001640000,  24.40000,
,,,00.000001644000,  24.40000,
,,,00.000001648000,  24.00000,
,,,00.000001652000,  24.40000,
,,,00.000001656000,  24.40000,
,,,00.000001660000,  24.00000,
,,,00.000001664000,  24.20000,
,,,00.000001668000,  24.20000,
,,,00.000001672000,  23.80000,
,,,00.000001676000,  24.00000,
,,,00.000001680000,  24.00000,
,,,00.000001684000,  24.00000,
,,,00.000001688000,  24.20000,
,,,00.000001692000,  23.80000,
,,,00.000001696000,  23.80000,
,,,00.000001700000,  23.80000,
,,,00.000001704000,  23.80000,
,,,00.000001708000,  23.60000,
,,,00.000001712000,  23.60000,
,,,00.000001716000,  23.60000,
,,,00.000001720000,  23.60000,
,,,00.000001724000,  23.60000,
,,,00.000001728000,  23.60000,
,,,00.000001732000,  23.60000,
,,,00.000001736000,  23.60000,
,,,00.000001740000,  23.60000,
,,,00.000001744000,  23.60000,
,,,00.000001748000,  23.40000,
,,,00.000001752000,  23.40000,
,,,00.000001756000,  23.40000,
,,,00.000001760000,  23.20000,
,,,00.000001764000,  23.60000,
,,,00.000001768000,  23.20000,
,,,00.000001772000,  23.20000,
,,,00.000001776000,  23.00000,
,,,00.000001780000,  23.00000,
,,,00.000001784000,  23.20000,
,,,00.000001788000,  23.00000,
