E2_Signale_Auf_Leitungen/Bilder/ALL0007/F0007CH1.CSV

Record Length,2.500000e+03,,  -0.000001470000, -18.00000,
Sample Interval,1.000000e-09,,  -0.000001469000, -18.00000,
Trigger Point,1.470000000000e+03,,  -0.000001468000, -17.80000,
,,,  -0.000001467000, -18.00000,
,,,  -0.000001466000, -17.80000,
,,,  -0.000001465000, -18.20000,
Source,CH1,,  -0.000001464000, -18.40000,
Vertical Units,V,,  -0.000001463000, -18.40000,
Vertical Scale,5.000000e+00,,  -0.000001462000, -18.40000,
Vertical Offset,0.000000e+00,,  -0.000001461000, -18.40000,
Horizontal Units,s,,  -0.000001460000, -18.20000,
Horizontal Scale,2.500000e-07,,  -0.000001459000, -18.00000,
Pt Fmt,Y,,  -0.000001458000, -18.00000,
Yzero,0.000000e+00,,  -0.000001457000, -18.00000,
Probe Atten,1.000000e+01,,  -0.000001456000, -18.40000,
Model Number,TDS1001B,,  -0.000001455000, -18.20000,
Serial Number,C059827,,  -0.000001454000, -18.40000,
Firmware Version,FV:v22.01,,  -0.000001453000, -18.00000,
,,,-00.000001452000, -18.20000,
,,,-00.000001451000, -18.00000,
,,,-00.000001450000, -18.20000,
,,,-00.000001449000, -18.20000,
,,,-00.000001448000, -18.20000,
,,,-00.000001447000, -18.40000,
,,,-00.000001446000, -18.20000,
,,,-00.000001445000, -18.20000,
,,,-00.000001444000, -18.60000,
,,,-00.000001443000, -18.40000,
,,,-00.000001442000, -18.20000,
,,,-00.000001441000, -18.20000,
,,,-00.000001440000, -18.20000,
,,,-00.000001439000, -18.20000,
,,,-00.000001438000, -18.00000,
,,,-00.000001437000, -18.00000,
,,,-00.000001436000, -18.00000,
,,,-00.000001435000, -18.00000,
,,,-00.000001434000, -17.80000,
,,,-00.000001433000, -18.20000,
,,,-00.000001432000, -18.40000,
,,,-00.000001431000, -18.00000,
,,,-00.000001430000, -18.20000,
,,,-00.000001429000, -18.20000,
,,,-00.000001428000, -18.00000,
,,,-00.000001427000, -18.00000,
,,,-00.000001426000, -18.00000,
,,,-00.000001425000, -17.80000,
,,,-00.000001424000, -18.00000,
,,,-00.000001423000, -18.00000,
,,,-00.000001422000, -17.80000,
,,,-00.000001421000, -18.00000,
,,,-00.000001420000, -18.20000,
,,,-00.000001419000, -18.00000,
,,,-00.000001418000, -18.00000,
,,,-00.000001417000, -18.20000,
,,,-00.000001416000, -18.40000,
,,,-00.000001415000, -18.20000,
,,,-00.000001414000, -18.20000,
,,,-00.000001413000, -18.20000,
,,,-00.000001412000, -18.20000,
,,,-00.000001411000, -18.20000,
,,,-00.000001410000, -18.40000,
,,,-00.000001409000, -18.20000,
,,,-00.000001408000, -18.40000,
,,,-00.000001407000, -18.40000,
,,,-00.000001406000, -18.40000,
,,,-00.000001405000, -18.20000,
,,,-00.000001404000, -18.40000,
,,,-00.000001403000, -18.20000,
,,,-00.000001402000, -18.20000,
,,,-00.000001401000, -18.20000,
,,,-00.000001400000, -18.20000,
,,,-00.000001399000, -18.00000,
,,,-00.000001398000, -18.40000,
,,,-00.000001397000, -18.20000,
,,,-00.000001396000, -18.20000,
,,,-00.000001395000, -18.40000,
,,,-00.000001394000, -18.00000,
,,,-00.000001393000, -18.20000,
,,,-00.000001392000, -18.20000,
,,,-00.000001391000, -18.20000,
,,,-00.000001390000, -18.20000,
,,,-00.000001389000, -18.40000,
,,,-00.000001388000, -18.00000,
,,,-00.000001387000, -18.20000,
,,,-00.000001386000, -18.20000,
,,,-00.000001385000, -18.00000,
,,,-00.000001384000, -18.40000,
,,,-00.000001383000, -18.00000,
,,,-00.000001382000, -18.20000,
,,,-00.000001381000, -18.20000,
,,,-00.000001380000, -18.20000,
,,,-00.000001379000, -18.00000,
,,,-00.000001378000, -18.00000,
,,,-00.000001377000, -18.20000,
,,,-00.000001376000, -18.20000,
,,,-00.000001375000, -18.40000,
,,,-00.000001374000, -18.20000,
,,,-00.000001373000, -18.20000,
,,,-00.000001372000, -18.20000,
,,,-00.000001371000, -18.20000,
,,,-00.000001370000, -18.20000,
,,,-00.000001369000, -17.80000,
,,,-00.000001368000, -18.40000,
,,,-00.000001367000, -18.00000,
,,,-00.000001366000, -18.20000,
,,,-00.000001365000, -18.20000,
,,,-00.000001364000, -18.40000,
,,,-00.000001363000, -18.20000,
,,,-00.000001362000, -18.20000,
,,,-00.000001361000, -18.00000,
,,,-00.000001360000, -18.00000,
,,,-00.000001359000, -17.80000,
,,,-00.000001358000, -18.00000,
,,,-00.000001357000, -18.20000,
,,,-00.000001356000, -18.20000,
,,,-00.000001355000, -18.20000,
,,,-00.000001354000, -18.20000,
,,,-00.000001353000, -17.80000,
,,,-00.000001352000, -17.80000,
,,,-00.000001351000, -17.80000,
,,,-00.000001350000, -18.00000,
,,,-00.000001349000, -18.20000,
,,,-00.000001348000, -18.40000,
,,,-00.000001347000, -18.40000,
,,,-00.000001346000, -18.20000,
,,,-00.000001345000, -18.20000,
,,,-00.000001344000, -18.00000,
,,,-00.000001343000, -18.20000,
,,,-00.000001342000, -18.20000,
,,,-00.000001341000, -18.40000,
,,,-00.000001340000, -18.40000,
,,,-00.000001339000, -18.00000,
,,,-00.000001338000, -17.80000,
,,,-00.000001337000, -18.00000,
,,,-00.000001336000, -18.20000,
,,,-00.000001335000, -18.00000,
,,,-00.000001334000, -18.20000,
,,,-00.000001333000, -18.20000,
,,,-00.000001332000, -18.20000,
,,,-00.000001331000, -18.20000,
,,,-00.000001330000, -18.00000,
,,,-00.000001329000, -18.20000,
,,,-00.000001328000, -18.40000,
,,,-00.000001327000, -18.20000,
,,,-00.000001326000, -18.00000,
,,,-00.000001325000, -18.20000,
,,,-00.000001324000, -18.20000,
,,,-00.000001323000, -18.20000,
,,,-00.000001322000, -18.00000,
,,,-00.000001321000, -18.20000,
,,,-00.000001320000, -18.00000,
,,,-00.000001319000, -18.00000,
,,,-00.000001318000, -18.00000,
,,,-00.000001317000, -18.40000,
,,,-00.000001316000, -18.20000,
,,,-00.000001315000, -18.00000,
,,,-00.000001314000, -18.20000,
,,,-00.000001313000, -18.00000,
,,,-00.000001312000, -18.00000,
,,,-00.000001311000, -18.20000,
,,,-00.000001310000, -17.80000,
,,,-00.000001309000, -18.20000,
,,,-00.000001308000, -18.00000,
,,,-00.000001307000, -18.00000,
,,,-00.000001306000, -18.20000,
,,,-00.000001305000, -18.20000,
,,,-00.000001304000, -18.20000,
,,,-00.000001303000, -18.00000,
,,,-00.000001302000, -18.00000,
,,,-00.000001301000, -17.80000,
,,,-00.000001300000, -18.00000,
,,,-00.000001299000, -18.20000,
,,,-00.000001298000, -17.80000,
,,,-00.000001297000, -18.00000,
,,,-00.000001296000, -18.40000,
,,,-00.000001295000, -18.00000,
,,,-00.000001294000, -18.20000,
,,,-00.000001293000, -18.20000,
,,,-00.000001292000, -18.00000,
,,,-00.000001291000, -18.40000,
,,,-00.000001290000, -18.20000,
,,,-00.000001289000, -18.20000,
,,,-00.000001288000, -18.00000,
,,,-00.000001287000, -18.00000,
,,,-00.000001286000, -18.00000,
,,,-00.000001285000, -18.20000,
,,,-00.000001284000, -18.00000,
,,,-00.000001283000, -18.20000,
,,,-00.000001282000, -18.00000,
,,,-00.000001281000, -18.20000,
,,,-00.000001280000, -18.00000,
,,,-00.000001279000, -18.00000,
,,,-00.000001278000, -18.00000,
,,,-00.000001277000, -18.00000,
,,,-00.000001276000, -18.20000,
,,,-00.000001275000, -18.00000,
,,,-00.000001274000, -18.00000,
,,,-00.000001273000, -18.00000,
,,,-00.000001272000, -17.80000,
,,,-00.000001271000, -18.00000,
,,,-00.000001270000, -18.00000,
,,,-00.000001269000, -18.20000,
,,,-00.000001268000, -18.00000,
,,,-00.000001267000, -18.00000,
,,,-00.000001266000, -18.00000,
,,,-00.000001265000, -18.00000,
,,,-00.000001264000, -18.00000,
,,,-00.000001263000, -18.20000,
,,,-00.000001262000, -18.00000,
,,,-00.000001261000, -18.00000,
,,,-00.000001260000, -18.00000,
,,,-00.000001259000, -18.20000,
,,,-00.000001258000, -18.40000,
,,,-00.000001257000, -18.00000,
,,,-00.000001256000, -18.20000,
,,,-00.000001255000, -18.00000,
,,,-00.000001254000, -18.00000,
,,,-00.000001253000, -17.80000,
,,,-00.000001252000, -18.00000,
,,,-00.000001251000, -18.00000,
,,,-00.000001250000, -18.20000,
,,,-00.000001249000, -18.40000,
,,,-00.000001248000, -18.20000,
,,,-00.000001247000, -18.20000,
,,,-00.000001246000, -18.20000,
,,,-00.000001245000, -18.40000,
,,,-00.000001244000, -18.00000,
,,,-00.000001243000, -18.20000,
,,,-00.000001242000, -18.00000,
,,,-00.000001241000, -18.20000,
,,,-00.000001240000, -18.20000,
,,,-00.000001239000, -18.20000,
,,,-00.000001238000, -18.00000,
,,,-00.000001237000, -18.00000,
,,,-00.000001236000, -18.00000,
,,,-00.000001235000, -18.20000,
,,,-00.000001234000, -18.20000,
,,,-00.000001233000, -18.00000,
,,,-00.000001232000, -18.20000,
,,,-00.000001231000, -18.20000,
,,,-00.000001230000, -18.00000,
,,,-00.000001229000, -18.40000,
,,,-00.000001228000, -18.00000,
,,,-00.000001227000, -18.00000,
,,,-00.000001226000, -18.00000,
,,,-00.000001225000, -18.00000,
,,,-00.000001224000, -17.80000,
,,,-00.000001223000, -18.20000,
,,,-00.000001222000, -18.00000,
,,,-00.000001221000, -18.00000,
,,,-00.000001220000, -18.00000,
,,,-00.000001219000, -18.00000,
,,,-00.000001218000, -18.20000,
,,,-00.000001217000, -18.00000,
,,,-00.000001216000, -18.00000,
,,,-00.000001215000, -18.40000,
,,,-00.000001214000, -17.80000,
,,,-00.000001213000, -18.20000,
,,,-00.000001212000, -18.20000,
,,,-00.000001211000, -18.00000,
,,,-00.000001210000, -18.20000,
,,,-00.000001209000, -18.00000,
,,,-00.000001208000, -18.20000,
,,,-00.000001207000, -18.20000,
,,,-00.000001206000, -18.20000,
,,,-00.000001205000, -18.20000,
,,,-00.000001204000, -18.00000,
,,,-00.000001203000, -18.00000,
,,,-00.000001202000, -18.00000,
,,,-00.000001201000, -18.00000,
,,,-00.000001200000, -18.20000,
,,,-00.000001199000, -18.00000,
,,,-00.000001198000, -18.00000,
,,,-00.000001197000, -18.00000,
,,,-00.000001196000, -17.80000,
,,,-00.000001195000, -18.00000,
,,,-00.000001194000, -18.00000,
,,,-00.000001193000, -17.80000,
,,,-00.000001192000, -18.00000,
,,,-00.000001191000, -18.00000,
,,,-00.000001190000, -18.00000,
,,,-00.000001189000, -18.00000,
,,,-00.000001188000, -18.00000,
,,,-00.000001187000, -18.00000,
,,,-00.000001186000, -18.20000,
,,,-00.000001185000, -18.20000,
,,,-00.000001184000, -18.20000,
,,,-00.000001183000, -18.00000,
,,,-00.000001182000, -18.20000,
,,,-00.000001181000, -17.80000,
,,,-00.000001180000, -18.00000,
,,,-00.000001179000, -17.80000,
,,,-00.000001178000, -18.00000,
,,,-00.000001177000, -18.20000,
,,,-00.000001176000, -18.00000,
,,,-00.000001175000, -18.20000,
,,,-00.000001174000, -18.20000,
,,,-00.000001173000, -18.00000,
,,,-00.000001172000, -18.00000,
,,,-00.000001171000, -17.80000,
,,,-00.000001170000, -18.00000,
,,,-00.000001169000, -17.80000,
,,,-00.000001168000, -18.00000,
,,,-00.000001167000, -18.00000,
,,,-00.000001166000, -18.00000,
,,,-00.000001165000, -18.00000,
,,,-00.000001164000, -18.20000,
,,,-00.000001163000, -17.80000,
,,,-00.000001162000, -17.80000,
,,,-00.000001161000, -18.00000,
,,,-00.000001160000, -17.80000,
,,,-00.000001159000, -17.80000,
,,,-00.000001158000, -18.00000,
,,,-00.000001157000, -17.80000,
,,,-00.000001156000, -17.80000,
,,,-00.000001155000, -17.80000,
,,,-00.000001154000, -17.80000,
,,,-00.000001153000, -18.00000,
,,,-00.000001152000, -18.20000,
,,,-00.000001151000, -18.20000,
,,,-00.000001150000, -17.80000,
,,,-00.000001149000, -18.00000,
,,,-00.000001148000, -18.00000,
,,,-00.000001147000, -18.00000,
,,,-00.000001146000, -18.20000,
,,,-00.000001145000, -18.00000,
,,,-00.000001144000, -18.20000,
,,,-00.000001143000, -17.80000,
,,,-00.000001142000, -18.00000,
,,,-00.000001141000, -17.80000,
,,,-00.000001140000, -18.00000,
,,,-00.000001139000, -17.80000,
,,,-00.000001138000, -17.80000,
,,,-00.000001137000, -17.80000,
,,,-00.000001136000, -18.00000,
,,,-00.000001135000, -18.00000,
,,,-00.000001134000, -17.60000,
,,,-00.000001133000, -17.80000,
,,,-00.000001132000, -18.00000,
,,,-00.000001131000, -18.20000,
,,,-00.000001130000, -18.00000,
,,,-00.000001129000, -17.60000,
,,,-00.000001128000, -17.80000,
,,,-00.000001127000, -17.60000,
,,,-00.000001126000, -17.60000,
,,,-00.000001125000, -17.80000,
,,,-00.000001124000, -18.00000,
,,,-00.000001123000, -17.80000,
,,,-00.000001122000, -17.80000,
,,,-00.000001121000, -17.60000,
,,,-00.000001120000, -17.80000,
,,,-00.000001119000, -18.00000,
,,,-00.000001118000, -17.80000,
,,,-00.000001117000, -17.60000,
,,,-00.000001116000, -17.80000,
,,,-00.000001115000, -17.80000,
,,,-00.000001114000, -18.00000,
,,,-00.000001113000, -18.00000,
,,,-00.000001112000, -17.80000,
,,,-00.000001111000, -18.00000,
,,,-00.000001110000, -17.80000,
,,,-00.000001109000, -18.00000,
,,,-00.000001108000, -18.00000,
,,,-00.000001107000, -18.00000,
,,,-00.000001106000, -17.80000,
,,,-00.000001105000, -17.80000,
,,,-00.000001104000, -17.80000,
,,,-00.000001103000, -17.80000,
,,,-00.000001102000, -17.80000,
,,,-00.000001101000, -17.80000,
,,,-00.000001100000, -17.80000,
,,,-00.000001099000, -18.00000,
,,,-00.000001098000, -17.80000,
,,,-00.000001097000, -17.80000,
,,,-00.000001096000, -18.00000,
,,,-00.000001095000, -18.00000,
,,,-00.000001094000, -17.80000,
,,,-00.000001093000, -18.20000,
,,,-00.000001092000, -18.00000,
,,,-00.000001091000, -17.80000,
,,,-00.000001090000, -17.80000,
,,,-00.000001089000, -18.00000,
,,,-00.000001088000, -18.00000,
,,,-00.000001087000, -17.80000,
,,,-00.000001086000, -17.80000,
,,,-00.000001085000, -18.00000,
,,,-00.000001084000, -17.60000,
,,,-00.000001083000, -18.00000,
,,,-00.000001082000, -17.80000,
,,,-00.000001081000, -17.80000,
,,,-00.000001080000, -17.60000,
,,,-00.000001079000, -17.60000,
,,,-00.000001078000, -18.00000,
,,,-00.000001077000, -17.80000,
,,,-00.000001076000, -17.80000,
,,,-00.000001075000, -17.80000,
,,,-00.000001074000, -17.60000,
,,,-00.000001073000, -17.80000,
,,,-00.000001072000, -17.80000,
,,,-00.000001071000, -17.80000,
,,,-00.000001070000, -17.60000,
,,,-00.000001069000, -17.80000,
,,,-00.000001068000, -17.80000,
,,,-00.000001067000, -17.80000,
,,,-00.000001066000, -17.80000,
,,,-00.000001065000, -17.80000,
,,,-00.000001064000, -17.80000,
,,,-00.000001063000, -17.60000,
,,,-00.000001062000, -17.60000,
,,,-00.000001061000, -17.60000,
,,,-00.000001060000, -17.80000,
,,,-00.000001059000, -17.80000,
,,,-00.000001058000, -18.00000,
,,,-00.000001057000, -17.60000,
,,,-00.000001056000, -17.80000,
,,,-00.000001055000, -17.60000,
,,,-00.000001054000, -17.60000,
,,,-00.000001053000, -17.60000,
,,,-00.000001052000, -17.60000,
,,,-00.000001051000, -18.00000,
,,,-00.000001050000, -18.00000,
,,,-00.000001049000, -17.80000,
,,,-00.000001048000, -17.80000,
,,,-00.000001047000, -17.80000,
,,,-00.000001046000, -17.40000,
,,,-00.000001045000, -17.80000,
,,,-00.000001044000, -17.60000,
,,,-00.000001043000, -17.60000,
,,,-00.000001042000, -17.40000,
,,,-00.000001041000, -17.60000,
,,,-00.000001040000, -17.40000,
,,,-00.000001039000, -17.40000,
,,,-00.000001038000, -17.40000,
,,,-00.000001037000, -17.40000,
,,,-00.000001036000, -17.40000,
,,,-00.000001035000, -17.60000,
,,,-00.000001034000, -17.60000,
,,,-00.000001033000, -17.60000,
,,,-00.000001032000, -17.40000,
,,,-00.000001031000, -17.60000,
,,,-00.000001030000, -17.40000,
,,,-00.000001029000, -17.20000,
,,,-00.000001028000, -17.40000,
,,,-00.000001027000, -17.20000,
,,,-00.000001026000, -17.40000,
,,,-00.000001025000, -17.60000,
,,,-00.000001024000, -17.20000,
,,,-00.000001023000, -17.20000,
,,,-00.000001022000, -17.20000,
,,,-00.000001021000, -17.40000,
,,,-00.000001020000, -17.60000,
,,,-00.000001019000, -17.40000,
,,,-00.000001018000, -17.60000,
,,,-00.000001017000, -17.40000,
,,,-00.000001016000, -17.40000,
,,,-00.000001015000, -17.40000,
,,,-00.000001014000, -17.20000,
,,,-00.000001013000, -17.20000,
,,,-00.000001012000, -17.40000,
,,,-00.000001011000, -17.20000,
,,,-00.000001010000, -17.40000,
,,,-00.000001009000, -17.40000,
,,,-00.000001008000, -17.20000,
,,,-00.000001007000, -17.40000,
,,,-00.000001006000, -17.00000,
,,,-00.000001005000, -17.00000,
,,,-00.000001004000, -17.00000,
,,,-00.000001003000, -17.20000,
,,,-00.000001002000, -17.00000,
,,,-00.000001001000, -17.40000,
,,,-00.000001000000, -17.00000,
,,,-00.000000999000, -17.40000,
,,,-00.000000998000, -17.40000,
,,,-00.000000997000, -17.00000,
,,,-00.000000996000, -17.20000,
,,,-00.000000995000, -17.20000,
,,,-00.000000994000, -17.20000,
,,,-00.000000993000, -17.20000,
,,,-00.000000992000, -17.00000,
,,,-00.000000991000, -16.80000,
,,,-00.000000990000, -16.80000,
,,,-00.000000989000, -16.80000,
,,,-00.000000988000, -17.00000,
,,,-00.000000987000, -16.60000,
,,,-00.000000986000, -16.80000,
,,,-00.000000985000, -16.60000,
,,,-00.000000984000, -16.80000,
,,,-00.000000983000, -16.80000,
,,,-00.000000982000, -16.80000,
,,,-00.000000981000, -16.40000,
,,,-00.000000980000, -16.60000,
,,,-00.000000979000, -16.80000,
,,,-00.000000978000, -16.40000,
,,,-00.000000977000, -16.40000,
,,,-00.000000976000, -16.60000,
,,,-00.000000975000, -16.40000,
,,,-00.000000974000, -16.60000,
,,,-00.000000973000, -16.20000,
,,,-00.000000972000, -16.00000,
,,,-00.000000971000, -15.80000,
,,,-00.000000970000, -15.80000,
,,,-00.000000969000, -15.40000,
,,,-00.000000968000, -15.20000,
,,,-00.000000967000, -14.80000,
,,,-00.000000966000, -14.20000,
,,,-00.000000965000, -13.40000,
,,,-00.000000964000, -12.80000,
,,,-00.000000963000, -11.40000,
,,,-00.000000962000, -10.60000,
,,,-00.000000961000,  -9.40000,
,,,-00.000000960000,  -8.40000,
,,,-00.000000959000,  -7.00000,
,,,-00.000000958000,  -5.60000,
,,,-00.000000957000,  -4.40000,
,,,-00.000000956000,  -3.20000,
,,,-00.000000955000,  -2.00000,
,,,-00.000000954000,  -1.00000,
,,,-00.000000953000,   0.00000,
,,,-00.000000952000,   0.80000,
,,,-00.000000951000,   1.40000,
,,,-00.000000950000,   2.20000,
,,,-00.000000949000,   2.80000,
,,,-00.000000948000,   3.20000,
,,,-00.000000947000,   3.40000,
,,,-00.000000946000,   3.80000,
,,,-00.000000945000,   3.80000,
,,,-00.000000944000,   4.00000,
,,,-00.000000943000,   4.20000,
,,,-00.000000942000,   4.20000,
,,,-00.000000941000,   4.20000,
,,,-00.000000940000,   4.20000,
,,,-00.000000939000,   4.00000,
,,,-00.000000938000,   4.20000,
,,,-00.000000937000,   3.80000,
,,,-00.000000936000,   4.00000,
,,,-00.000000935000,   3.80000,
,,,-00.000000934000,   3.80000,
,,,-00.000000933000,   3.80000,
,,,-00.000000932000,   4.00000,
,,,-00.000000931000,   3.60000,
,,,-00.000000930000,   4.00000,
,,,-00.000000929000,   4.00000,
,,,-00.000000928000,   4.20000,
,,,-00.000000927000,   4.00000,
,,,-00.000000926000,   4.20000,
,,,-00.000000925000,   4.40000,
,,,-00.000000924000,   4.20000,
,,,-00.000000923000,   4.60000,
,,,-00.000000922000,   4.60000,
,,,-00.000000921000,   4.60000,
,,,-00.000000920000,   4.60000,
,,,-00.000000919000,   4.60000,
,,,-00.000000918000,   4.80000,
,,,-00.000000917000,   4.80000,
,,,-00.000000916000,   5.00000,
,,,-00.000000915000,   5.20000,
,,,-00.000000914000,   5.00000,
,,,-00.000000913000,   5.00000,
,,,-00.000000912000,   5.00000,
,,,-00.000000911000,   5.20000,
,,,-00.000000910000,   5.40000,
,,,-00.000000909000,   5.60000,
,,,-00.000000908000,   5.40000,
,,,-00.000000907000,   5.40000,
,,,-00.000000906000,   5.60000,
,,,-00.000000905000,   5.60000,
,,,-00.000000904000,   5.60000,
,,,-00.000000903000,   5.80000,
,,,-00.000000902000,   5.60000,
,,,-00.000000901000,   5.80000,
,,,-00.000000900000,   5.60000,
,,,-00.000000899000,   6.00000,
,,,-00.000000898000,   6.00000,
,,,-00.000000897000,   6.00000,
,,,-00.000000896000,   6.00000,
,,,-00.000000895000,   6.00000,
,,,-00.000000894000,   6.40000,
,,,-00.000000893000,   6.00000,
,,,-00.000000892000,   6.20000,
,,,-00.000000891000,   6.20000,
,,,-00.000000890000,   6.00000,
,,,-00.000000889000,   6.20000,
,,,-00.000000888000,   6.20000,
,,,-00.000000887000,   6.40000,
,,,-00.000000886000,   6.20000,
,,,-00.000000885000,   6.20000,
,,,-00.000000884000,   6.40000,
,,,-00.000000883000,   6.40000,
,,,-00.000000882000,   6.40000,
,,,-00.000000881000,   6.40000,
,,,-00.000000880000,   6.40000,
,,,-00.000000879000,   6.40000,
,,,-00.000000878000,   6.40000,
,,,-00.000000877000,   6.40000,
,,,-00.000000876000,   6.40000,
,,,-00.000000875000,   6.60000,
,,,-00.000000874000,   6.60000,
,,,-00.000000873000,   6.40000,
,,,-00.000000872000,   6.40000,
,,,-00.000000871000,   6.40000,
,,,-00.000000870000,   6.40000,
,,,-00.000000869000,   6.40000,
,,,-00.000000868000,   6.60000,
,,,-00.000000867000,   6.80000,
,,,-00.000000866000,   6.60000,
,,,-00.000000865000,   6.60000,
,,,-00.000000864000,   6.60000,
,,,-00.000000863000,   6.80000,
,,,-00.000000862000,   6.80000,
,,,-00.000000861000,   6.80000,
,,,-00.000000860000,   6.80000,
,,,-00.000000859000,   7.00000,
,,,-00.000000858000,   7.00000,
,,,-00.000000857000,   7.20000,
