V21_Optisches_pumpen/data/ALL0000/F0000CH1.CSV

Record Length,2.500000e+03,,  -0.000000204000,   0.40000,
Sample Interval,4.000000e-10,,  -0.000000203600,   0.40000,
Trigger Point,5.100000000000e+02,,  -0.000000203200,   0.40000,
,,,  -0.000000202800,   0.40000,
,,,  -0.000000202400,   0.40000,
,,,  -0.000000202000,   0.40000,
Source,CH1,,  -0.000000201600,   0.40000,
Vertical Units,V,,  -0.000000201200,   0.40000,
Vertical Scale,1.000000e+01,,  -0.000000200800,   0.40000,
Vertical Offset,-2.480000e+01,,  -0.000000200400,   0.40000,
Horizontal Units,s,,  -0.000000200000,   0.40000,
Horizontal Scale,1.000000e-07,,  -0.000000199600,   0.40000,
Pt Fmt,Y,,  -0.000000199200,   0.40000,
Yzero,0.000000e+00,,  -0.000000198800,   0.40000,
Probe Atten,1.000000e+01,,  -0.000000198400,   0.40000,
Model Number,TDS1012B,,  -0.000000198000,   0.40000,
Serial Number,C063623,,  -0.000000197600,   0.40000,
Firmware Version,FV:v22.01,,  -0.000000197200,   0.40000,
,,,-00.000000196800,   0.40000,
,,,-00.000000196400,   0.40000,
,,,-00.000000196000,   0.40000,
,,,-00.000000195600,   0.40000,
,,,-00.000000195200,   0.40000,
,,,-00.000000194800,   0.40000,
,,,-00.000000194400,   0.40000,
,,,-00.000000194000,   0.40000,
,,,-00.000000193600,   0.40000,
,,,-00.000000193200,   0.40000,
,,,-00.000000192800,   0.40000,
,,,-00.000000192400,   0.40000,
,,,-00.000000192000,   0.40000,
,,,-00.000000191600,   0.40000,
,,,-00.000000191200,   0.00000,
,,,-00.000000190800,   0.00000,
,,,-00.000000190400,   0.40000,
,,,-00.000000190000,   0.40000,
,,,-00.000000189600,   0.40000,
,,,-00.000000189200,   0.40000,
,,,-00.000000188800,   0.40000,
,,,-00.000000188400,   0.40000,
,,,-00.000000188000,   0.40000,
,,,-00.000000187600,   0.40000,
,,,-00.000000187200,   0.40000,
,,,-00.000000186800,   0.40000,
,,,-00.000000186400,   0.40000,
,,,-00.000000186000,   0.40000,
,,,-00.000000185600,   0.40000,
,,,-00.000000185200,   0.40000,
,,,-00.000000184800,   0.40000,
,,,-00.000000184400,   0.40000,
,,,-00.000000184000,   0.40000,
,,,-00.000000183600,   0.40000,
,,,-00.000000183200,   0.00000,
,,,-00.000000182800,   0.00000,
,,,-00.000000182400,   0.40000,
,,,-00.000000182000,   0.40000,
,,,-00.000000181600,   0.40000,
,,,-00.000000181200,   0.40000,
,,,-00.000000180800,   0.40000,
,,,-00.000000180400,   0.40000,
,,,-00.000000180000,   0.40000,
,,,-00.000000179600,   0.40000,
,,,-00.000000179200,   0.40000,
,,,-00.000000178800,   0.40000,
,,,-00.000000178400,   0.40000,
,,,-00.000000178000,   0.40000,
,,,-00.000000177600,   0.40000,
,,,-00.000000177200,   0.40000,
,,,-00.000000176800,   0.40000,
,,,-00.000000176400,   0.00000,
,,,-00.000000176000,   0.40000,
,,,-00.000000175600,   0.40000,
,,,-00.000000175200,   0.00000,
,,,-00.000000174800,   0.00000,
,,,-00.000000174400,   0.00000,
,,,-00.000000174000,   0.40000,
,,,-00.000000173600,   0.40000,
,,,-00.000000173200,   0.40000,
,,,-00.000000172800,   0.40000,
,,,-00.000000172400,   0.40000,
,,,-00.000000172000,   0.40000,
,,,-00.000000171600,   0.40000,
,,,-00.000000171200,   0.40000,
,,,-00.000000170800,   0.40000,
,,,-00.000000170400,   0.40000,
,,,-00.000000170000,   0.40000,
,,,-00.000000169600,   0.40000,
,,,-00.000000169200,   0.40000,
,,,-00.000000168800,   0.40000,
,,,-00.000000168400,   0.40000,
,,,-00.000000168000,   0.40000,
,,,-00.000000167600,   0.40000,
,,,-00.000000167200,   0.00000,
,,,-00.000000166800,   0.00000,
,,,-00.000000166400,   0.00000,
,,,-00.000000166000,   0.00000,
,,,-00.000000165600,   0.40000,
,,,-00.000000165200,   0.40000,
,,,-00.000000164800,   0.40000,
,,,-00.000000164400,   0.40000,
,,,-00.000000164000,   0.40000,
,,,-00.000000163600,   0.40000,
,,,-00.000000163200,   0.40000,
,,,-00.000000162800,   0.40000,
,,,-00.000000162400,   0.40000,
,,,-00.000000162000,   0.40000,
,,,-00.000000161600,   0.40000,
,,,-00.000000161200,   0.40000,
,,,-00.000000160800,   0.40000,
,,,-00.000000160400,   0.40000,
,,,-00.000000160000,   0.40000,
,,,-00.000000159600,   0.40000,
,,,-00.000000159200,   0.40000,
,,,-00.000000158800,   0.40000,
,,,-00.000000158400,   0.40000,
,,,-00.000000158000,   0.40000,
,,,-00.000000157600,   0.40000,
,,,-00.000000157200,   0.40000,
,,,-00.000000156800,   0.40000,
,,,-00.000000156400,   0.40000,
,,,-00.000000156000,   0.40000,
,,,-00.000000155600,   0.40000,
,,,-00.000000155200,   0.40000,
,,,-00.000000154800,   0.00000,
,,,-00.000000154400,   0.00000,
,,,-00.000000154000,   0.40000,
,,,-00.000000153600,   0.40000,
,,,-00.000000153200,   0.40000,
,,,-00.000000152800,   0.40000,
,,,-00.000000152400,   0.00000,
,,,-00.000000152000,   0.40000,
,,,-00.000000151600,   0.40000,
,,,-00.000000151200,   0.40000,
,,,-00.000000150800,   0.40000,
,,,-00.000000150400,   0.40000,
,,,-00.000000150000,   0.40000,
,,,-00.000000149600,   0.40000,
,,,-00.000000149200,   0.40000,
,,,-00.000000148800,   0.00000,
,,,-00.000000148400,   0.40000,
,,,-00.000000148000,   0.40000,
,,,-00.000000147600,   0.40000,
,,,-00.000000147200,   0.40000,
,,,-00.000000146800,   0.40000,
,,,-00.000000146400,   0.40000,
,,,-00.000000146000,   0.40000,
,,,-00.000000145600,   0.40000,
,,,-00.000000145200,   0.40000,
,,,-00.000000144800,   0.40000,
,,,-00.000000144400,   0.40000,
,,,-00.000000144000,   0.40000,
,,,-00.000000143600,   0.40000,
,,,-00.000000143200,   0.40000,
,,,-00.000000142800,   0.40000,
,,,-00.000000142400,   0.40000,
,,,-00.000000142000,   0.40000,
,,,-00.000000141600,   0.40000,
,,,-00.000000141200,   0.40000,
,,,-00.000000140800,   0.40000,
,,,-00.000000140400,   0.40000,
,,,-00.000000140000,   0.40000,
,,,-00.000000139600,   0.40000,
,,,-00.000000139200,   0.40000,
,,,-00.000000138800,   0.00000,
,,,-00.000000138400,   0.40000,
,,,-00.000000138000,   0.40000,
,,,-00.000000137600,   0.40000,
,,,-00.000000137200,   0.40000,
,,,-00.000000136800,   0.40000,
,,,-00.000000136400,   0.40000,
,,,-00.000000136000,   0.40000,
,,,-00.000000135600,   0.40000,
,,,-00.000000135200,   0.40000,
,,,-00.000000134800,   0.40000,
,,,-00.000000134400,   0.00000,
,,,-00.000000134000,   0.00000,
,,,-00.000000133600,   0.40000,
,,,-00.000000133200,   0.40000,
,,,-00.000000132800,   0.40000,
,,,-00.000000132400,   0.40000,
,,,-00.000000132000,   0.40000,
,,,-00.000000131600,   0.40000,
,,,-00.000000131200,   0.40000,
,,,-00.000000130800,   0.40000,
,,,-00.000000130400,   0.40000,
,,,-00.000000130000,   0.40000,
,,,-00.000000129600,   0.40000,
,,,-00.000000129200,   0.40000,
,,,-00.000000128800,   0.40000,
,,,-00.000000128400,   0.40000,
,,,-00.000000128000,   0.40000,
,,,-00.000000127600,   0.40000,
,,,-00.000000127200,   0.40000,
,,,-00.000000126800,   0.40000,
,,,-00.000000126400,   0.00000,
,,,-00.000000126000,   0.40000,
,,,-00.000000125600,   0.40000,
,,,-00.000000125200,   0.40000,
,,,-00.000000124800,   0.40000,
,,,-00.000000124400,   0.40000,
,,,-00.000000124000,   0.40000,
,,,-00.000000123600,   0.40000,
,,,-00.000000123200,   0.40000,
,,,-00.000000122800,   0.40000,
,,,-00.000000122400,   0.40000,
,,,-00.000000122000,   0.40000,
,,,-00.000000121600,   0.40000,
,,,-00.000000121200,   0.40000,
,,,-00.000000120800,   0.40000,
,,,-00.000000120400,   0.40000,
,,,-00.000000120000,   0.00000,
,,,-00.000000119600,   0.40000,
,,,-00.000000119200,   0.40000,
,,,-00.000000118800,   0.40000,
,,,-00.000000118400,   0.40000,
,,,-00.000000118000,   0.40000,
,,,-00.000000117600,   0.40000,
,,,-00.000000117200,   0.40000,
,,,-00.000000116800,   0.40000,
,,,-00.000000116400,   0.40000,
,,,-00.000000116000,   0.40000,
,,,-00.000000115600,   0.40000,
,,,-00.000000115200,   0.40000,
,,,-00.000000114800,   0.40000,
,,,-00.000000114400,   0.40000,
,,,-00.000000114000,   0.40000,
,,,-00.000000113600,   0.40000,
,,,-00.000000113200,   0.40000,
,,,-00.000000112800,   0.40000,
,,,-00.000000112400,   0.00000,
,,,-00.000000112000,   0.40000,
,,,-00.000000111600,   0.40000,
,,,-00.000000111200,   0.40000,
,,,-00.000000110800,   0.40000,
,,,-00.000000110400,   0.40000,
,,,-00.000000110000,   0.40000,
,,,-00.000000109600,   0.40000,
,,,-00.000000109200,   0.40000,
,,,-00.000000108800,   0.40000,
,,,-00.000000108400,   0.40000,
,,,-00.000000108000,   0.40000,
,,,-00.000000107600,   0.40000,
,,,-00.000000107200,   0.40000,
,,,-00.000000106800,   0.40000,
,,,-00.000000106400,   0.40000,
,,,-00.000000106000,   0.40000,
,,,-00.000000105600,   0.40000,
,,,-00.000000105200,   0.40000,
,,,-00.000000104800,   0.40000,
,,,-00.000000104400,   0.40000,
,,,-00.000000104000,   0.40000,
,,,-00.000000103600,   0.40000,
,,,-00.000000103200,   0.00000,
,,,-00.000000102800,   0.40000,
,,,-00.000000102400,   0.40000,
,,,-00.000000102000,   0.40000,
,,,-00.000000101600,   0.40000,
,,,-00.000000101200,   0.40000,
,,,-00.000000100800,   0.40000,
,,,-00.000000100400,   0.40000,
,,,-00.000000100000,   0.40000,
,,,-00.000000099600,   0.40000,
,,,-00.000000099200,   0.40000,
,,,-00.000000098800,   0.40000,
,,,-00.000000098400,   0.40000,
,,,-00.000000098000,   0.40000,
,,,-00.000000097600,   0.40000,
,,,-00.000000097200,   0.40000,
,,,-00.000000096800,   0.40000,
,,,-00.000000096400,   0.40000,
,,,-00.000000096000,   0.40000,
,,,-00.000000095600,   0.40000,
,,,-00.000000095200,   0.40000,
,,,-00.000000094800,   0.40000,
,,,-00.000000094400,   0.40000,
,,,-00.000000094000,   0.40000,
,,,-00.000000093600,   0.40000,
,,,-00.000000093200,   0.40000,
,,,-00.000000092800,   0.40000,
,,,-00.000000092400,   0.40000,
,,,-00.000000092000,   0.40000,
,,,-00.000000091600,   0.40000,
,,,-00.000000091200,   0.40000,
,,,-00.000000090800,   0.40000,
,,,-00.000000090400,   0.40000,
,,,-00.000000090000,   0.40000,
,,,-00.000000089600,   0.40000,
,,,-00.000000089200,   0.40000,
,,,-00.000000088800,   0.00000,
,,,-00.000000088400,   0.00000,
,,,-00.000000088000,   0.00000,
,,,-00.000000087600,   0.00000,
,,,-00.000000087200,   0.00000,
,,,-00.000000086800,   0.00000,
,,,-00.000000086400,   0.00000,
,,,-00.000000086000,   0.40000,
,,,-00.000000085600,   0.40000,
,,,-00.000000085200,   0.00000,
,,,-00.000000084800,   0.00000,
,,,-00.000000084400,   0.00000,
,,,-00.000000084000,   0.00000,
,,,-00.000000083600,   0.00000,
,,,-00.000000083200,   0.00000,
,,,-00.000000082800,   0.00000,
,,,-00.000000082400,   0.00000,
,,,-00.000000082000,   0.00000,
,,,-00.000000081600,   0.00000,
,,,-00.000000081200,   0.00000,
,,,-00.000000080800,   0.00000,
,,,-00.000000080400,   0.00000,
,,,-00.000000080000,   0.00000,
,,,-00.000000079600,   0.40000,
,,,-00.000000079200,   0.00000,
,,,-00.000000078800,   0.00000,
,,,-00.000000078400,   0.00000,
,,,-00.000000078000,   0.00000,
,,,-00.000000077600,   0.00000,
,,,-00.000000077200,   0.00000,
,,,-00.000000076800,   0.00000,
,,,-00.000000076400,   0.00000,
,,,-00.000000076000,   0.00000,
,,,-00.000000075600,   0.00000,
,,,-00.000000075200,   0.00000,
,,,-00.000000074800,   0.00000,
,,,-00.000000074400,   0.00000,
,,,-00.000000074000,   0.00000,
,,,-00.000000073600,   0.00000,
,,,-00.000000073200,   0.00000,
,,,-00.000000072800,   0.00000,
,,,-00.000000072400,   0.00000,
,,,-00.000000072000,   0.00000,
,,,-00.000000071600,   0.00000,
,,,-00.000000071200,   0.00000,
,,,-00.000000070800,   0.00000,
,,,-00.000000070400,   0.00000,
,,,-00.000000070000,   0.00000,
,,,-00.000000069600,   0.00000,
,,,-00.000000069200,   0.00000,
,,,-00.000000068800,   0.00000,
,,,-00.000000068400,   0.00000,
,,,-00.000000068000,   0.00000,
,,,-00.000000067600,   0.00000,
,,,-00.000000067200,   0.00000,
,,,-00.000000066800,   0.00000,
,,,-00.000000066400,   0.00000,
,,,-00.000000066000,   0.00000,
,,,-00.000000065600,   0.00000,
,,,-00.000000065200,   0.00000,
,,,-00.000000064800,   0.00000,
,,,-00.000000064400,   0.00000,
,,,-00.000000064000,   0.40000,
,,,-00.000000063600,   0.40000,
,,,-00.000000063200,   0.40000,
,,,-00.000000062800,   0.40000,
,,,-00.000000062400,   0.40000,
,,,-00.000000062000,   0.40000,
,,,-00.000000061600,   0.40000,
,,,-00.000000061200,   0.40000,
,,,-00.000000060800,   0.40000,
,,,-00.000000060400,   0.40000,
,,,-00.000000060000,   0.80000,
,,,-00.000000059600,   0.80000,
,,,-00.000000059200,   0.80000,
,,,-00.000000058800,   0.80000,
,,,-00.000000058400,   0.80000,
,,,-00.000000058000,   0.80000,
,,,-00.000000057600,   1.20000,
,,,-00.000000057200,   1.20000,
,,,-00.000000056800,   1.20000,
,,,-00.000000056400,   1.20000,
,,,-00.000000056000,   1.60000,
,,,-00.000000055600,   1.60000,
,,,-00.000000055200,   1.60000,
,,,-00.000000054800,   1.60000,
,,,-00.000000054400,   2.00000,
,,,-00.000000054000,   2.00000,
,,,-00.000000053600,   2.40000,
,,,-00.000000053200,   2.40000,
,,,-00.000000052800,   2.40000,
,,,-00.000000052400,   2.80000,
,,,-00.000000052000,   2.80000,
,,,-00.000000051600,   2.80000,
,,,-00.000000051200,   3.20000,
,,,-00.000000050800,   3.20000,
,,,-00.000000050400,   3.20000,
,,,-00.000000050000,   3.60000,
,,,-00.000000049600,   3.60000,
,,,-00.000000049200,   3.60000,
,,,-00.000000048800,   4.00000,
,,,-00.000000048400,   4.00000,
,,,-00.000000048000,   4.40000,
,,,-00.000000047600,   4.40000,
,,,-00.000000047200,   4.40000,
,,,-00.000000046800,   4.40000,
,,,-00.000000046400,   4.80000,
,,,-00.000000046000,   4.80000,
,,,-00.000000045600,   5.20000,
,,,-00.000000045200,   5.20000,
,,,-00.000000044800,   5.60000,
,,,-00.000000044400,   5.60000,
,,,-00.000000044000,   5.60000,
,,,-00.000000043600,   6.00000,
,,,-00.000000043200,   6.00000,
,,,-00.000000042800,   6.00000,
,,,-00.000000042400,   6.40000,
,,,-00.000000042000,   6.40000,
,,,-00.000000041600,   6.40000,
,,,-00.000000041200,   6.80000,
,,,-00.000000040800,   6.80000,
,,,-00.000000040400,   7.20000,
,,,-00.000000040000,   7.20000,
,,,-00.000000039600,   7.20000,
,,,-00.000000039200,   7.60000,
,,,-00.000000038800,   7.60000,
,,,-00.000000038400,   7.60000,
,,,-00.000000038000,   8.00000,
,,,-00.000000037600,   8.00000,
,,,-00.000000037200,   8.00000,
,,,-00.000000036800,   8.40000,
,,,-00.000000036400,   8.40000,
,,,-00.000000036000,   8.80000,
,,,-00.000000035600,   8.80000,
,,,-00.000000035200,   8.80000,
,,,-00.000000034800,   9.20000,
,,,-00.000000034400,   9.20000,
,,,-00.000000034000,   9.20000,
,,,-00.000000033600,   9.60000,
,,,-00.000000033200,   9.60000,
,,,-00.000000032800,   9.60000,
,,,-00.000000032400,  10.00000,
,,,-00.000000032000,  10.00000,
,,,-00.000000031600,  10.00000,
,,,-00.000000031200,  10.40000,
,,,-00.000000030800,  10.40000,
,,,-00.000000030400,  10.40000,
,,,-00.000000030000,  10.80000,
,,,-00.000000029600,  10.80000,
,,,-00.000000029200,  10.80000,
,,,-00.000000028800,  10.80000,
,,,-00.000000028400,  11.20000,
,,,-00.000000028000,  11.20000,
,,,-00.000000027600,  11.20000,
,,,-00.000000027200,  11.60000,
,,,-00.000000026800,  11.60000,
,,,-00.000000026400,  11.60000,
,,,-00.000000026000,  12.00000,
,,,-00.000000025600,  12.00000,
,,,-00.000000025200,  12.00000,
,,,-00.000000024800,  12.00000,
,,,-00.000000024400,  12.40000,
,,,-00.000000024000,  12.40000,
,,,-00.000000023600,  12.40000,
,,,-00.000000023200,  12.40000,
,,,-00.000000022800,  12.40000,
,,,-00.000000022400,  12.80000,
,,,-00.000000022000,  12.80000,
,,,-00.000000021600,  13.20000,
,,,-00.000000021200,  13.20000,
,,,-00.000000020800,  13.20000,
,,,-00.000000020400,  13.20000,
,,,-00.000000020000,  13.20000,
,,,-00.000000019600,  13.60000,
,,,-00.000000019200,  13.60000,
,,,-00.000000018800,  13.60000,
,,,-00.000000018400,  13.60000,
,,,-00.000000018000,  14.00000,
,,,-00.000000017600,  14.00000,
,,,-00.000000017200,  14.00000,
,,,-00.000000016800,  14.00000,
,,,-00.000000016400,  14.40000,
,,,-00.000000016000,  14.40000,
,,,-00.000000015600,  14.40000,
,,,-00.000000015200,  14.40000,
,,,-00.000000014800,  14.40000,
,,,-00.000000014400,  14.40000,
,,,-00.000000014000,  14.80000,
,,,-00.000000013600,  14.80000,
,,,-00.000000013200,  14.80000,
,,,-00.000000012800,  14.80000,
,,,-00.000000012400,  14.80000,
,,,-00.000000012000,  15.20000,
,,,-00.000000011600,  15.20000,
,,,-00.000000011200,  15.20000,
,,,-00.000000010800,  15.20000,
,,,-00.000000010400,  15.60000,
,,,-00.000000010000,  15.60000,
,,,-00.000000009600,  15.60000,
,,,-00.000000009200,  15.60000,
,,,-00.000000008800,  16.00000,
,,,-00.000000008400,  15.60000,
,,,-00.000000008000,  16.00000,
,,,-00.000000007600,  16.00000,
,,,-00.000000007200,  16.00000,
,,,-00.000000006800,  16.00000,
,,,-00.000000006400,  16.40000,
,,,-00.000000006000,  16.40000,
,,,-00.000000005600,  16.40000,
,,,-00.000000005200,  16.40000,
,,,-00.000000004800,  16.80000,
,,,-00.000000004400,  16.80000,
,,,-00.000000004000,  16.80000,
,,,-00.000000003600,  16.80000,
,,,-00.000000003200,  17.20000,
,,,-00.000000002800,  17.20000,
,,,-00.000000002400,  17.60000,
,,,-00.000000002000,  17.60000,
,,,-00.000000001600,  17.60000,
,,,-00.000000001200,  17.60000,
,,,-00.000000000800,  17.60000,
,,,-00.000000000400,  18.00000,
,,,-00.000000000000,  18.00000,
,,,00.000000000400,  18.40000,
,,,00.000000000800,  18.40000,
,,,00.000000001200,  18.40000,
,,,00.000000001600,  18.80000,
,,,00.000000002000,  18.80000,
,,,00.000000002400,  18.80000,
,,,00.000000002800,  19.20000,
,,,00.000000003200,  19.20000,
,,,00.000000003600,  19.20000,
,,,00.000000004000,  19.60000,
,,,00.000000004400,  19.60000,
,,,00.000000004800,  19.60000,
,,,00.000000005200,  20.00000,
,,,00.000000005600,  20.00000,
,,,00.000000006000,  20.00000,
,,,00.000000006400,  20.40000,
,,,00.000000006800,  20.40000,
,,,00.000000007200,  20.40000,
,,,00.000000007600,  20.80000,
,,,00.000000008000,  20.80000,
,,,00.000000008400,  20.80000,
,,,00.000000008800,  21.20000,
,,,00.000000009200,  21.20000,
,,,00.000000009600,  21.20000,
,,,00.000000010000,  21.60000,
,,,00.000000010400,  21.60000,
,,,00.000000010800,  21.60000,
,,,00.000000011200,  22.00000,
,,,00.000000011600,  22.00000,
,,,00.000000012000,  22.00000,
,,,00.000000012400,  22.40000,
,,,00.000000012800,  22.40000,
,,,00.000000013200,  22.40000,
,,,00.000000013600,  22.40000,
,,,00.000000014000,  22.80000,
,,,00.000000014400,  22.80000,
,,,00.000000014800,  22.80000,
,,,00.000000015200,  23.20000,
,,,00.000000015600,  23.20000,
,,,00.000000016000,  23.20000,
,,,00.000000016400,  23.60000,
,,,00.000000016800,  23.60000,
,,,00.000000017200,  23.60000,
,,,00.000000017600,  23.60000,
,,,00.000000018000,  24.00000,
,,,00.000000018400,  24.00000,
,,,00.000000018800,  24.00000,
,,,00.000000019200,  24.00000,
,,,00.000000019600,  24.40000,
,,,00.000000020000,  24.40000,
,,,00.000000020400,  24.40000,
,,,00.000000020800,  24.40000,
,,,00.000000021200,  24.40000,
,,,00.000000021600,  24.80000,
,,,00.000000022000,  24.80000,
,,,00.000000022400,  24.80000,
,,,00.000000022800,  24.80000,
,,,00.000000023200,  24.80000,
,,,00.000000023600,  25.20000,
,,,00.000000024000,  25.20000,
,,,00.000000024400,  25.20000,
,,,00.000000024800,  25.20000,
,,,00.000000025200,  25.20000,
,,,00.000000025600,  25.60000,
,,,00.000000026000,  25.60000,
,,,00.000000026400,  25.60000,
,,,00.000000026800,  25.60000,
,,,00.000000027200,  25.60000,
,,,00.000000027600,  26.00000,
,,,00.000000028000,  26.00000,
,,,00.000000028400,  26.00000,
,,,00.000000028800,  26.00000,
,,,00.000000029200,  26.00000,
,,,00.000000029600,  26.40000,
,,,00.000000030000,  26.40000,
,,,00.000000030400,  26.40000,
,,,00.000000030800,  26.40000,
,,,00.000000031200,  26.40000,
,,,00.000000031600,  26.40000,
,,,00.000000032000,  26.80000,
,,,00.000000032400,  26.80000,
,,,00.000000032800,  26.80000,
,,,00.000000033200,  26.80000,
,,,00.000000033600,  26.80000,
,,,00.000000034000,  27.20000,
,,,00.000000034400,  27.20000,
,,,00.000000034800,  27.20000,
,,,00.000000035200,  27.20000,
,,,00.000000035600,  27.60000,
,,,00.000000036000,  27.60000,
,,,00.000000036400,  27.60000,
,,,00.000000036800,  27.60000,
,,,00.000000037200,  27.60000,
,,,00.000000037600,  27.60000,
,,,00.000000038000,  27.60000,
,,,00.000000038400,  28.00000,
,,,00.000000038800,  28.00000,
,,,00.000000039200,  28.00000,
,,,00.000000039600,  28.00000,
,,,00.000000040000,  28.00000,
,,,00.000000040400,  28.40000,
,,,00.000000040800,  28.40000,
,,,00.000000041200,  28.40000,
,,,00.000000041600,  28.40000,
,,,00.000000042000,  28.40000,
,,,00.000000042400,  28.80000,
